29-Dec-2020 21:46:22.660 INFO [Catalina-utility-2] org.apache.catalina.core.StandardContext.reload Reloading Context with name [/sint33] has started
29-Dec-2020 21:46:22.724 INFO [Catalina-utility-2] org.apache.catalina.core.StandardContext.reload Reloading Context with name [/sint33] is completed
29-Dec-2020 21:51:42.794 INFO [Catalina-utility-1] org.apache.catalina.core.StandardContext.reload Reloading Context with name [/sint33] has started
29-Dec-2020 21:51:42.829 INFO [Catalina-utility-1] org.apache.catalina.core.StandardContext.reload Reloading Context with name [/sint33] is completed
29-Dec-2020 21:52:43.026 INFO [main] org.apache.catalina.core.StandardServer.await A valid shutdown command was received via the shutdown port. Stopping the Server instance.
29-Dec-2020 21:52:43.027 INFO [main] org.apache.coyote.AbstractProtocol.pause Pausing ProtocolHandler ["http-nio-7033"]
29-Dec-2020 21:52:43.036 INFO [main] org.apache.catalina.core.StandardService.stopInternal Stopping service [Catalina]
29-Dec-2020 21:52:43.088 INFO [main] org.apache.coyote.AbstractProtocol.stop Stopping ProtocolHandler ["http-nio-7033"]
29-Dec-2020 21:52:43.131 INFO [main] org.apache.coyote.AbstractProtocol.destroy Destroying ProtocolHandler ["http-nio-7033"]
NOTE: Picked up JDK_JAVA_OPTIONS:  --add-opens=java.base/java.lang=ALL-UNNAMED --add-opens=java.base/java.io=ALL-UNNAMED --add-opens=java.rmi/sun.rmi.transport=ALL-UNNAMED
18-Jan-2021 14:30:03.251 WARNING [main] org.apache.tomcat.util.digester.SetPropertiesRule.begin Match [Server/Service/Engine/Host/Context] failed to set property [debug] to [0]
18-Jan-2021 14:30:03.301 INFO [main] org.apache.catalina.startup.VersionLoggerListener.log Server version name:   Apache Tomcat/9.0.38
18-Jan-2021 14:30:03.302 INFO [main] org.apache.catalina.startup.VersionLoggerListener.log Server built:          Sep 10 2020 08:20:30 UTC
18-Jan-2021 14:30:03.302 INFO [main] org.apache.catalina.startup.VersionLoggerListener.log Server version number: 9.0.38.0
18-Jan-2021 14:30:03.303 INFO [main] org.apache.catalina.startup.VersionLoggerListener.log OS Name:               Linux
18-Jan-2021 14:30:03.303 INFO [main] org.apache.catalina.startup.VersionLoggerListener.log OS Version:            5.4.0-60-generic
18-Jan-2021 14:30:03.303 INFO [main] org.apache.catalina.startup.VersionLoggerListener.log Architecture:          amd64
18-Jan-2021 14:30:03.304 INFO [main] org.apache.catalina.startup.VersionLoggerListener.log Java Home:             /usr/lib/jvm/java-11-openjdk-amd64
18-Jan-2021 14:30:03.304 INFO [main] org.apache.catalina.startup.VersionLoggerListener.log JVM Version:           11.0.9.1+1-Ubuntu-0ubuntu1.20.04
18-Jan-2021 14:30:03.305 INFO [main] org.apache.catalina.startup.VersionLoggerListener.log JVM Vendor:            Ubuntu
18-Jan-2021 14:30:03.305 INFO [main] org.apache.catalina.startup.VersionLoggerListener.log CATALINA_BASE:         /home/mateo/Documents/git/jajasesinte/apache-tomcat-9.0.38
18-Jan-2021 14:30:03.306 INFO [main] org.apache.catalina.startup.VersionLoggerListener.log CATALINA_HOME:         /home/mateo/Documents/git/jajasesinte/apache-tomcat-9.0.38
18-Jan-2021 14:30:03.385 INFO [main] org.apache.catalina.startup.VersionLoggerListener.log Command line argument: --add-opens=java.base/java.lang=ALL-UNNAMED
18-Jan-2021 14:30:03.386 INFO [main] org.apache.catalina.startup.VersionLoggerListener.log Command line argument: --add-opens=java.base/java.io=ALL-UNNAMED
18-Jan-2021 14:30:03.386 INFO [main] org.apache.catalina.startup.VersionLoggerListener.log Command line argument: --add-opens=java.rmi/sun.rmi.transport=ALL-UNNAMED
18-Jan-2021 14:30:03.387 INFO [main] org.apache.catalina.startup.VersionLoggerListener.log Command line argument: -Djava.util.logging.config.file=/home/mateo/Documents/git/jajasesinte/apache-tomcat-9.0.38/conf/logging.properties
18-Jan-2021 14:30:03.387 INFO [main] org.apache.catalina.startup.VersionLoggerListener.log Command line argument: -Djava.util.logging.manager=org.apache.juli.ClassLoaderLogManager
18-Jan-2021 14:30:03.387 INFO [main] org.apache.catalina.startup.VersionLoggerListener.log Command line argument: -Djdk.tls.ephemeralDHKeySize=2048
18-Jan-2021 14:30:03.387 INFO [main] org.apache.catalina.startup.VersionLoggerListener.log Command line argument: -Djava.protocol.handler.pkgs=org.apache.catalina.webresources
18-Jan-2021 14:30:03.388 INFO [main] org.apache.catalina.startup.VersionLoggerListener.log Command line argument: -Dorg.apache.catalina.security.SecurityListener.UMASK=0027
18-Jan-2021 14:30:03.388 INFO [main] org.apache.catalina.startup.VersionLoggerListener.log Command line argument: -Dignore.endorsed.dirs=
18-Jan-2021 14:30:03.388 INFO [main] org.apache.catalina.startup.VersionLoggerListener.log Command line argument: -Dcatalina.base=/home/mateo/Documents/git/jajasesinte/apache-tomcat-9.0.38
18-Jan-2021 14:30:03.388 INFO [main] org.apache.catalina.startup.VersionLoggerListener.log Command line argument: -Dcatalina.home=/home/mateo/Documents/git/jajasesinte/apache-tomcat-9.0.38
18-Jan-2021 14:30:03.388 INFO [main] org.apache.catalina.startup.VersionLoggerListener.log Command line argument: -Djava.io.tmpdir=/home/mateo/Documents/git/jajasesinte/apache-tomcat-9.0.38/temp
18-Jan-2021 14:30:03.390 INFO [main] org.apache.catalina.core.AprLifecycleListener.lifecycleEvent The Apache Tomcat Native library which allows using OpenSSL was not found on the java.library.path: [/usr/java/packages/lib:/usr/lib/x86_64-linux-gnu/jni:/lib/x86_64-linux-gnu:/usr/lib/x86_64-linux-gnu:/usr/lib/jni:/lib:/usr/lib]
18-Jan-2021 14:30:04.000 INFO [main] org.apache.coyote.AbstractProtocol.init Initializing ProtocolHandler ["http-nio-7033"]
18-Jan-2021 14:30:04.171 INFO [main] org.apache.catalina.startup.Catalina.load Server initialization in [1603] milliseconds
18-Jan-2021 14:30:04.284 INFO [main] org.apache.catalina.core.StandardService.startInternal Starting service [Catalina]
18-Jan-2021 14:30:04.285 INFO [main] org.apache.catalina.core.StandardEngine.startInternal Starting Servlet engine: [Apache Tomcat/9.0.38]
18-Jan-2021 14:30:04.794 INFO [main] org.apache.catalina.startup.HostConfig.deployDirectory Deploying web application directory [/home/mateo/Documents/git/jajasesinte/apache-tomcat-9.0.38/webapps/docs]
18-Jan-2021 14:30:04.849 INFO [main] org.apache.catalina.startup.HostConfig.deployDirectory Deployment of web application directory [/home/mateo/Documents/git/jajasesinte/apache-tomcat-9.0.38/webapps/docs] has finished in [45] ms
18-Jan-2021 14:30:04.850 INFO [main] org.apache.catalina.startup.HostConfig.deployDirectory Deploying web application directory [/home/mateo/Documents/git/jajasesinte/apache-tomcat-9.0.38/webapps/examples]
18-Jan-2021 14:30:05.319 INFO [main] org.apache.catalina.startup.HostConfig.deployDirectory Deployment of web application directory [/home/mateo/Documents/git/jajasesinte/apache-tomcat-9.0.38/webapps/examples] has finished in [469] ms
18-Jan-2021 14:30:05.320 INFO [main] org.apache.catalina.startup.HostConfig.deployDirectory Deploying web application directory [/home/mateo/Documents/git/jajasesinte/apache-tomcat-9.0.38/webapps/manager]
18-Jan-2021 14:30:05.414 INFO [main] org.apache.catalina.startup.HostConfig.deployDirectory Deployment of web application directory [/home/mateo/Documents/git/jajasesinte/apache-tomcat-9.0.38/webapps/manager] has finished in [94] ms
18-Jan-2021 14:30:05.414 INFO [main] org.apache.catalina.startup.HostConfig.deployDirectory Deploying web application directory [/home/mateo/Documents/git/jajasesinte/apache-tomcat-9.0.38/webapps/ROOT]
18-Jan-2021 14:30:05.446 INFO [main] org.apache.catalina.startup.HostConfig.deployDirectory Deployment of web application directory [/home/mateo/Documents/git/jajasesinte/apache-tomcat-9.0.38/webapps/ROOT] has finished in [32] ms
18-Jan-2021 14:30:05.447 INFO [main] org.apache.catalina.startup.HostConfig.deployDirectory Deploying web application directory [/home/mateo/Documents/git/jajasesinte/apache-tomcat-9.0.38/webapps/host-manager]
18-Jan-2021 14:30:05.502 INFO [main] org.apache.catalina.startup.HostConfig.deployDirectory Deployment of web application directory [/home/mateo/Documents/git/jajasesinte/apache-tomcat-9.0.38/webapps/host-manager] has finished in [55] ms
18-Jan-2021 14:30:05.520 INFO [main] org.apache.coyote.AbstractProtocol.start Starting ProtocolHandler ["http-nio-7033"]
18-Jan-2021 14:30:05.542 INFO [main] org.apache.catalina.startup.Catalina.start Server startup in [1370] milliseconds
18-Jan-2021 14:33:03.636 INFO [main] org.apache.catalina.core.StandardServer.await A valid shutdown command was received via the shutdown port. Stopping the Server instance.
18-Jan-2021 14:33:03.636 INFO [main] org.apache.coyote.AbstractProtocol.pause Pausing ProtocolHandler ["http-nio-7033"]
18-Jan-2021 14:33:03.643 INFO [main] org.apache.catalina.core.StandardService.stopInternal Stopping service [Catalina]
18-Jan-2021 14:33:03.727 INFO [main] org.apache.coyote.AbstractProtocol.stop Stopping ProtocolHandler ["http-nio-7033"]
18-Jan-2021 14:33:03.741 INFO [main] org.apache.coyote.AbstractProtocol.destroy Destroying ProtocolHandler ["http-nio-7033"]
NOTE: Picked up JDK_JAVA_OPTIONS:  --add-opens=java.base/java.lang=ALL-UNNAMED --add-opens=java.base/java.io=ALL-UNNAMED --add-opens=java.rmi/sun.rmi.transport=ALL-UNNAMED
18-Jan-2021 14:33:13.065 WARNING [main] org.apache.tomcat.util.digester.SetPropertiesRule.begin Match [Server/Service/Engine/Host/Context] failed to set property [debug] to [0]
18-Jan-2021 14:33:13.086 INFO [main] org.apache.catalina.startup.VersionLoggerListener.log Server version name:   Apache Tomcat/9.0.38
18-Jan-2021 14:33:13.093 INFO [main] org.apache.catalina.startup.VersionLoggerListener.log Server built:          Sep 10 2020 08:20:30 UTC
18-Jan-2021 14:33:13.097 INFO [main] org.apache.catalina.startup.VersionLoggerListener.log Server version number: 9.0.38.0
18-Jan-2021 14:33:13.097 INFO [main] org.apache.catalina.startup.VersionLoggerListener.log OS Name:               Linux
18-Jan-2021 14:33:13.097 INFO [main] org.apache.catalina.startup.VersionLoggerListener.log OS Version:            5.4.0-60-generic
18-Jan-2021 14:33:13.098 INFO [main] org.apache.catalina.startup.VersionLoggerListener.log Architecture:          amd64
18-Jan-2021 14:33:13.098 INFO [main] org.apache.catalina.startup.VersionLoggerListener.log Java Home:             /usr/lib/jvm/java-11-openjdk-amd64
18-Jan-2021 14:33:13.098 INFO [main] org.apache.catalina.startup.VersionLoggerListener.log JVM Version:           11.0.9.1+1-Ubuntu-0ubuntu1.20.04
18-Jan-2021 14:33:13.098 INFO [main] org.apache.catalina.startup.VersionLoggerListener.log JVM Vendor:            Ubuntu
18-Jan-2021 14:33:13.099 INFO [main] org.apache.catalina.startup.VersionLoggerListener.log CATALINA_BASE:         /home/mateo/Documents/git/jajasesinte/apache-tomcat-9.0.38
18-Jan-2021 14:33:13.099 INFO [main] org.apache.catalina.startup.VersionLoggerListener.log CATALINA_HOME:         /home/mateo/Documents/git/jajasesinte/apache-tomcat-9.0.38
18-Jan-2021 14:33:13.101 INFO [main] org.apache.catalina.startup.VersionLoggerListener.log Command line argument: --add-opens=java.base/java.lang=ALL-UNNAMED
18-Jan-2021 14:33:13.101 INFO [main] org.apache.catalina.startup.VersionLoggerListener.log Command line argument: --add-opens=java.base/java.io=ALL-UNNAMED
18-Jan-2021 14:33:13.101 INFO [main] org.apache.catalina.startup.VersionLoggerListener.log Command line argument: --add-opens=java.rmi/sun.rmi.transport=ALL-UNNAMED
18-Jan-2021 14:33:13.101 INFO [main] org.apache.catalina.startup.VersionLoggerListener.log Command line argument: -Djava.util.logging.config.file=/home/mateo/Documents/git/jajasesinte/apache-tomcat-9.0.38/conf/logging.properties
18-Jan-2021 14:33:13.102 INFO [main] org.apache.catalina.startup.VersionLoggerListener.log Command line argument: -Djava.util.logging.manager=org.apache.juli.ClassLoaderLogManager
18-Jan-2021 14:33:13.102 INFO [main] org.apache.catalina.startup.VersionLoggerListener.log Command line argument: -Djdk.tls.ephemeralDHKeySize=2048
18-Jan-2021 14:33:13.102 INFO [main] org.apache.catalina.startup.VersionLoggerListener.log Command line argument: -Djava.protocol.handler.pkgs=org.apache.catalina.webresources
18-Jan-2021 14:33:13.102 INFO [main] org.apache.catalina.startup.VersionLoggerListener.log Command line argument: -Dorg.apache.catalina.security.SecurityListener.UMASK=0027
18-Jan-2021 14:33:13.102 INFO [main] org.apache.catalina.startup.VersionLoggerListener.log Command line argument: -Dignore.endorsed.dirs=
18-Jan-2021 14:33:13.102 INFO [main] org.apache.catalina.startup.VersionLoggerListener.log Command line argument: -Dcatalina.base=/home/mateo/Documents/git/jajasesinte/apache-tomcat-9.0.38
18-Jan-2021 14:33:13.102 INFO [main] org.apache.catalina.startup.VersionLoggerListener.log Command line argument: -Dcatalina.home=/home/mateo/Documents/git/jajasesinte/apache-tomcat-9.0.38
18-Jan-2021 14:33:13.102 INFO [main] org.apache.catalina.startup.VersionLoggerListener.log Command line argument: -Djava.io.tmpdir=/home/mateo/Documents/git/jajasesinte/apache-tomcat-9.0.38/temp
18-Jan-2021 14:33:13.104 INFO [main] org.apache.catalina.core.AprLifecycleListener.lifecycleEvent The Apache Tomcat Native library which allows using OpenSSL was not found on the java.library.path: [/usr/java/packages/lib:/usr/lib/x86_64-linux-gnu/jni:/lib/x86_64-linux-gnu:/usr/lib/x86_64-linux-gnu:/usr/lib/jni:/lib:/usr/lib]
18-Jan-2021 14:33:13.593 INFO [main] org.apache.coyote.AbstractProtocol.init Initializing ProtocolHandler ["http-nio-7033"]
18-Jan-2021 14:33:13.664 INFO [main] org.apache.catalina.startup.Catalina.load Server initialization in [936] milliseconds
18-Jan-2021 14:33:13.766 INFO [main] org.apache.catalina.core.StandardService.startInternal Starting service [Catalina]
18-Jan-2021 14:33:13.768 INFO [main] org.apache.catalina.core.StandardEngine.startInternal Starting Servlet engine: [Apache Tomcat/9.0.38]
18-Jan-2021 14:33:14.135 INFO [main] org.apache.catalina.startup.HostConfig.deployDirectory Deploying web application directory [/home/mateo/Documents/git/jajasesinte/apache-tomcat-9.0.38/webapps/docs]
18-Jan-2021 14:33:14.165 INFO [main] org.apache.catalina.startup.HostConfig.deployDirectory Deployment of web application directory [/home/mateo/Documents/git/jajasesinte/apache-tomcat-9.0.38/webapps/docs] has finished in [29] ms
18-Jan-2021 14:33:14.165 INFO [main] org.apache.catalina.startup.HostConfig.deployDirectory Deploying web application directory [/home/mateo/Documents/git/jajasesinte/apache-tomcat-9.0.38/webapps/examples]
18-Jan-2021 14:33:14.484 INFO [main] org.apache.catalina.startup.HostConfig.deployDirectory Deployment of web application directory [/home/mateo/Documents/git/jajasesinte/apache-tomcat-9.0.38/webapps/examples] has finished in [318] ms
18-Jan-2021 14:33:14.484 INFO [main] org.apache.catalina.startup.HostConfig.deployDirectory Deploying web application directory [/home/mateo/Documents/git/jajasesinte/apache-tomcat-9.0.38/webapps/manager]
18-Jan-2021 14:33:14.529 INFO [main] org.apache.catalina.startup.HostConfig.deployDirectory Deployment of web application directory [/home/mateo/Documents/git/jajasesinte/apache-tomcat-9.0.38/webapps/manager] has finished in [45] ms
18-Jan-2021 14:33:14.529 INFO [main] org.apache.catalina.startup.HostConfig.deployDirectory Deploying web application directory [/home/mateo/Documents/git/jajasesinte/apache-tomcat-9.0.38/webapps/ROOT]
18-Jan-2021 14:33:14.556 INFO [main] org.apache.catalina.startup.HostConfig.deployDirectory Deployment of web application directory [/home/mateo/Documents/git/jajasesinte/apache-tomcat-9.0.38/webapps/ROOT] has finished in [27] ms
18-Jan-2021 14:33:14.557 INFO [main] org.apache.catalina.startup.HostConfig.deployDirectory Deploying web application directory [/home/mateo/Documents/git/jajasesinte/apache-tomcat-9.0.38/webapps/host-manager]
18-Jan-2021 14:33:14.587 INFO [main] org.apache.catalina.startup.HostConfig.deployDirectory Deployment of web application directory [/home/mateo/Documents/git/jajasesinte/apache-tomcat-9.0.38/webapps/host-manager] has finished in [30] ms
18-Jan-2021 14:33:14.592 INFO [main] org.apache.coyote.AbstractProtocol.start Starting ProtocolHandler ["http-nio-7033"]
18-Jan-2021 14:33:14.650 INFO [main] org.apache.catalina.startup.Catalina.start Server startup in [984] milliseconds
OK: DOC - http://gssi.det.uvigo.es/users/agil/public_html/SINT/20-21/teleco.xml
OK: DOC - http://gssi.det.uvigo.es/users/agil/public_html/SINT/20-21/economicas.xml
OK: DOC - http://gssi.det.uvigo.es/users/agil/public_html/SINT/20-21/biologia.xml
MAL: http://gssi.det.uvigo.es/users/agil/public_html/SINT/20-21/err02.xml has this errors:1
MAL: http://gssi.det.uvigo.es/users/agil/public_html/SINT/20-21/err03.xml has this errors:1
MAL: http://gssi.det.uvigo.es/users/agil/public_html/SINT/20-21/err04.xml has this errors:2
MAL: http://gssi.det.uvigo.es/users/agil/public_html/SINT/20-21/err05.xml has this errors:2
MAL: http://gssi.det.uvigo.es/users/agil/public_html/SINT/20-21/err06.xml has this errors:3
MAL: http://gssi.det.uvigo.es/users/agil/public_html/SINT/20-21/err07.xml has this errors:2
MAL: http://gssi.det.uvigo.es/users/agil/public_html/SINT/20-21/err08.xml has this errors:1
MAL: http://gssi.det.uvigo.es/users/agil/public_html/SINT/20-21/err09.xml has this errors:1
MAL: http://gssi.det.uvigo.es/users/agil/public_html/SINT/20-21/err10.xml has this errors:2
MAL: http://gssi.det.uvigo.es/users/agil/public_html/SINT/20-21/err11.xml has this errors:1
MAL: http://gssi.det.uvigo.es/users/agil/public_html/SINT/20-21/err12.xml has this errors:1
MAL: http://gssi.det.uvigo.es/users/agil/public_html/SINT/20-21/err13.xml has this errors:1
OK: DOC - http://gssi.det.uvigo.es/users/agil/public_html/SINT/20-21/industriales.xml
OK: DOC - http://gssi.det.uvigo.es/users/agil/public_html/SINT/20-21/economicas.xml
OK: DOC - http://gssi.det.uvigo.es/users/agil/public_html/SINT/20-21/biologia.xml
OK: DOC - http://gssi.det.uvigo.es/users/agil/public_html/SINT/20-21/biologia.xml
OK: DOC - http://gssi.det.uvigo.es/users/agil/public_html/SINT/20-21/economicas.xml
OK: DOC - http://gssi.det.uvigo.es/users/agil/public_html/SINT/20-21/biologia.xml
OK: DOC - http://gssi.det.uvigo.es/users/agil/public_html/SINT/20-21/biologia.xml
OK: DOC - http://gssi.det.uvigo.es/users/agil/public_html/SINT/20-21/economicas.xml
OK: DOC - http://gssi.det.uvigo.es/users/agil/public_html/SINT/20-21/industriales.xml
OK: DOC - http://gssi.det.uvigo.es/users/agil/public_html/SINT/20-21/biologia.xml
OK: DOC - http://gssi.det.uvigo.es/users/agil/public_html/SINT/20-21/biologia.xml
OK: DOC - http://gssi.det.uvigo.es/users/agil/public_html/SINT/20-21/economicas.xml
OK: DOC - http://gssi.det.uvigo.es/users/agil/public_html/SINT/20-21/industriales.xml
OK: DOC - http://gssi.det.uvigo.es/users/agil/public_html/SINT/20-21/economicas.xml
OK: DOC - http://gssi.det.uvigo.es/users/agil/public_html/SINT/20-21/economicas.xml
OK: DOC - http://gssi.det.uvigo.es/users/agil/public_html/SINT/20-21/biologia.xml
OK: DOC - http://gssi.det.uvigo.es/users/agil/public_html/SINT/20-21/industriales.xml
OK: DOC - http://gssi.det.uvigo.es/users/agil/public_html/SINT/20-21/industriales.xml
OK: DOC - http://gssi.det.uvigo.es/users/agil/public_html/SINT/20-21/biologia.xml
OK: DOC - http://gssi.det.uvigo.es/users/agil/public_html/SINT/20-21/biologia.xml
OK: DOC - http://gssi.det.uvigo.es/users/agil/public_html/SINT/20-21/industriales.xml
MAL: http://gssi.det.uvigo.es/users/agil/public_html/SINT/20-21/err14.xml has this errors:2
MAL: http://gssi.det.uvigo.es/users/agil/public_html/SINT/20-21/err15.xml has this errors:2
MAL: http://gssi.det.uvigo.es/users/agil/public_html/SINT/20-21/err16.xml has this errors:2
MAL: http://gssi.det.uvigo.es/users/agil/public_html/SINT/20-21/err17.xml has this errors:2
OK: DOC - http://gssi.det.uvigo.es/users/agil/public_html/SINT/20-21/biologia.xml
OK: DOC - http://gssi.det.uvigo.es/users/agil/public_html/SINT/20-21/biologia.xml
OK: DOC - http://gssi.det.uvigo.es/users/agil/public_html/SINT/20-21/economicas.xml
OK: DOC - http://gssi.det.uvigo.es/users/agil/public_html/SINT/20-21/industriales.xml
OK: DOC - http://gssi.det.uvigo.es/users/agil/public_html/SINT/20-21/biologia.xml
OK: DOC - http://gssi.det.uvigo.es/users/agil/public_html/SINT/20-21/biologia.xml
OK: DOC - http://gssi.det.uvigo.es/users/agil/public_html/SINT/20-21/economicas.xml
OK: DOC - http://gssi.det.uvigo.es/users/agil/public_html/SINT/20-21/industriales.xml
OK: DOC - http://gssi.det.uvigo.es/users/agil/public_html/SINT/20-21/economicas.xml
OK: DOC - http://gssi.det.uvigo.es/users/agil/public_html/SINT/20-21/economicas.xml
OK: DOC - http://gssi.det.uvigo.es/users/agil/public_html/SINT/20-21/biologia.xml
OK: DOC - http://gssi.det.uvigo.es/users/agil/public_html/SINT/20-21/industriales.xml
OK: DOC - http://gssi.det.uvigo.es/users/agil/public_html/SINT/20-21/industriales.xml
OK: DOC - http://gssi.det.uvigo.es/users/agil/public_html/SINT/20-21/biologia.xml
OK: DOC - http://gssi.det.uvigo.es/users/agil/public_html/SINT/20-21/biologia.xml
OK: DOC - http://gssi.det.uvigo.es/users/agil/public_html/SINT/20-21/economicas.xml
OK: DOC - http://gssi.det.uvigo.es/users/agil/public_html/SINT/20-21/biologia.xml
OK: DOC - http://gssi.det.uvigo.es/users/agil/public_html/SINT/20-21/biologia.xml
OK: DOC - http://gssi.det.uvigo.es/users/agil/public_html/SINT/20-21/economicas.xml
OK: DOC - http://gssi.det.uvigo.es/users/agil/public_html/SINT/20-21/biologia.xml
OK: DOC - http://gssi.det.uvigo.es/users/agil/public_html/SINT/20-21/biologia.xml
OK: DOC - http://gssi.det.uvigo.es/users/agil/public_html/SINT/20-21/economicas.xml
OK: DOC - http://gssi.det.uvigo.es/users/agil/public_html/SINT/20-21/biologia.xml
OK: DOC - http://gssi.det.uvigo.es/users/agil/public_html/SINT/20-21/biologia.xml
OK: DOC - http://gssi.det.uvigo.es/users/agil/public_html/SINT/20-21/economicas.xml
OK: DOC - http://gssi.det.uvigo.es/users/agil/public_html/SINT/20-21/industriales.xml
OK: DOC - http://gssi.det.uvigo.es/users/agil/public_html/SINT/20-21/economicas.xml
OK: DOC - http://gssi.det.uvigo.es/users/agil/public_html/SINT/20-21/economicas.xml
OK: DOC - http://gssi.det.uvigo.es/users/agil/public_html/SINT/20-21/biologia.xml
OK: DOC - http://gssi.det.uvigo.es/users/agil/public_html/SINT/20-21/industriales.xml
OK: DOC - http://gssi.det.uvigo.es/users/agil/public_html/SINT/20-21/industriales.xml
OK: DOC - http://gssi.det.uvigo.es/users/agil/public_html/SINT/20-21/biologia.xml
OK: DOC - http://gssi.det.uvigo.es/users/agil/public_html/SINT/20-21/biologia.xml
18-Jan-2021 14:36:45.577 INFO [main] org.apache.catalina.core.StandardServer.await A valid shutdown command was received via the shutdown port. Stopping the Server instance.
18-Jan-2021 14:36:45.577 INFO [main] org.apache.coyote.AbstractProtocol.pause Pausing ProtocolHandler ["http-nio-7033"]
18-Jan-2021 14:36:45.584 INFO [main] org.apache.catalina.core.StandardService.stopInternal Stopping service [Catalina]
18-Jan-2021 14:36:45.620 INFO [main] org.apache.coyote.AbstractProtocol.stop Stopping ProtocolHandler ["http-nio-7033"]
18-Jan-2021 14:36:45.632 INFO [main] org.apache.coyote.AbstractProtocol.destroy Destroying ProtocolHandler ["http-nio-7033"]
