0:0:0:0:0:0:0:1 - - [15/Nov/2020:13:32:58 +0100] "GET / HTTP/1.1" 200 11216
0:0:0:0:0:0:0:1 - - [15/Nov/2020:13:32:59 +0100] "GET /tomcat.css HTTP/1.1" 200 5581
0:0:0:0:0:0:0:1 - - [15/Nov/2020:13:32:59 +0100] "GET /tomcat.png HTTP/1.1" 200 5103
0:0:0:0:0:0:0:1 - - [15/Nov/2020:13:32:59 +0100] "GET /asf-logo-wide.svg HTTP/1.1" 200 27235
0:0:0:0:0:0:0:1 - - [15/Nov/2020:13:32:59 +0100] "GET /bg-middle.png HTTP/1.1" 200 1918
0:0:0:0:0:0:0:1 - - [15/Nov/2020:13:32:59 +0100] "GET /bg-button.png HTTP/1.1" 200 713
0:0:0:0:0:0:0:1 - - [15/Nov/2020:13:32:59 +0100] "GET /bg-nav.png HTTP/1.1" 200 1401
0:0:0:0:0:0:0:1 - - [15/Nov/2020:13:32:59 +0100] "GET /bg-upper.png HTTP/1.1" 200 3103
0:0:0:0:0:0:0:1 - - [15/Nov/2020:13:32:59 +0100] "GET /favicon.ico HTTP/1.1" 200 8192
0:0:0:0:0:0:0:1 - - [15/Nov/2020:13:33:19 +0100] "GET /P2EA HTTP/1.1" 404 755
0:0:0:0:0:0:0:1 - - [15/Nov/2020:13:33:33 +0100] "GET /HP HTTP/1.1" 404 753
0:0:0:0:0:0:0:1 - - [15/Nov/2020:13:35:26 +0100] "GET /sint33 HTTP/1.1" 302 -
0:0:0:0:0:0:0:1 - - [15/Nov/2020:13:35:26 +0100] "GET /sint33/ HTTP/1.1" 404 762
0:0:0:0:0:0:0:1 - - [15/Nov/2020:13:35:26 +0100] "GET /favicon.ico HTTP/1.1" 200 8192
0:0:0:0:0:0:0:1 - - [15/Nov/2020:13:35:31 +0100] "GET / HTTP/1.1" 200 11216
0:0:0:0:0:0:0:1 - - [15/Nov/2020:13:35:40 +0100] "GET /sint33/HP HTTP/1.1" 404 764
0:0:0:0:0:0:0:1 - - [15/Nov/2020:13:36:20 +0100] "GET /sint33/P2EA HTTP/1.1" 500 3352
0:0:0:0:0:0:0:1 - - [15/Nov/2020:13:37:55 +0100] "GET /sint33/P2EA HTTP/1.1" 200 120
0:0:0:0:0:0:0:1 - - [15/Nov/2020:13:40:16 +0100] "GET /sint33/P2EA HTTP/1.1" 200 120
0:0:0:0:0:0:0:1 - - [15/Nov/2020:13:40:18 +0100] "GET /sint33/P2EA HTTP/1.1" 200 120
0:0:0:0:0:0:0:1 - - [15/Nov/2020:13:40:28 +0100] "GET /sint33/P2EA HTTP/1.1" 200 120
0:0:0:0:0:0:0:1 - - [15/Nov/2020:13:42:30 +0100] "GET /sint33/P2EA HTTP/1.1" 200 120
0:0:0:0:0:0:0:1 - - [15/Nov/2020:13:44:42 +0100] "GET /sint33/P2EA HTTP/1.1" 200 167
0:0:0:0:0:0:0:1 - - [15/Nov/2020:13:45:12 +0100] "GET /sint33/P2EA?pphase=01 HTTP/1.1" 200 243
0:0:0:0:0:0:0:1 - - [15/Nov/2020:13:47:27 +0100] "GET /sint33/P2EA?pphase=01 HTTP/1.1" 200 243
0:0:0:0:0:0:0:1 - - [15/Nov/2020:13:47:35 +0100] "GET /sint33/P2EA HTTP/1.1" 200 243
0:0:0:0:0:0:0:1 - - [15/Nov/2020:13:47:41 +0100] "GET /sint33/P2EA?pphase=02 HTTP/1.1" 200 243
0:0:0:0:0:0:0:1 - - [15/Nov/2020:13:47:45 +0100] "GET /sint33/P2EA?pphase=12 HTTP/1.1" 200 243
0:0:0:0:0:0:0:1 - - [15/Nov/2020:13:47:49 +0100] "GET /sint33/P2EA?pphase=15 HTTP/1.1" 200 243
0:0:0:0:0:0:0:1 - - [15/Nov/2020:21:27:11 +0100] "GET /sint33/P2EA HTTP/1.1" 200 525
0:0:0:0:0:0:0:1 - - [15/Nov/2020:21:27:11 +0100] "GET /sint33/favicon.ico HTTP/1.1" 404 773
0:0:0:0:0:0:0:1 - - [15/Nov/2020:21:27:15 +0100] "GET /sint33/P2EA/?pphase=02 HTTP/1.1" 404 771
0:0:0:0:0:0:0:1 - - [15/Nov/2020:21:27:15 +0100] "GET /favicon.ico HTTP/1.1" 200 8192
0:0:0:0:0:0:0:1 - - [15/Nov/2020:21:27:34 +0100] "GET /sint33/P2EA?pphase=01 HTTP/1.1" 200 525
0:0:0:0:0:0:0:1 - - [15/Nov/2020:21:27:34 +0100] "GET /sint33/favicon.ico HTTP/1.1" 404 773
0:0:0:0:0:0:0:1 - - [15/Nov/2020:21:27:40 +0100] "GET /sint33/P2EA/?pphase=02 HTTP/1.1" 404 771
0:0:0:0:0:0:0:1 - - [15/Nov/2020:21:27:40 +0100] "GET /favicon.ico HTTP/1.1" 200 8192
0:0:0:0:0:0:0:1 - - [15/Nov/2020:21:27:52 +0100] "GET /favicon.ico HTTP/1.1" 200 8192
0:0:0:0:0:0:0:1 - - [15/Nov/2020:21:27:55 +0100] "GET /sint33/P2EA?pphase=11 HTTP/1.1" 200 296
0:0:0:0:0:0:0:1 - - [15/Nov/2020:21:27:59 +0100] "GET /sint33/P2EA?pphase=02 HTTP/1.1" 200 409
0:0:0:0:0:0:0:1 - - [15/Nov/2020:21:28:05 +0100] "GET /sint33/P2EA?pphase=02 HTTP/1.1" 200 409
0:0:0:0:0:0:0:1 - - [15/Nov/2020:21:28:05 +0100] "GET /sint33/favicon.ico HTTP/1.1" 404 773
0:0:0:0:0:0:0:1 - - [15/Nov/2020:21:28:11 +0100] "GET /sint33/P2EA?pphase=01 HTTP/1.1" 200 525
0:0:0:0:0:0:0:1 - - [15/Nov/2020:21:28:11 +0100] "GET /sint33/favicon.ico HTTP/1.1" 404 773
0:0:0:0:0:0:0:1 - - [15/Nov/2020:21:28:38 +0100] "GET /sint33/P2EA/?pphase=02 HTTP/1.1" 404 771
0:0:0:0:0:0:0:1 - - [15/Nov/2020:21:28:42 +0100] "GET /sint33/P2EA/?pphase=02 HTTP/1.1" 404 771
0:0:0:0:0:0:0:1 - - [15/Nov/2020:21:29:14 +0100] "GET /sint33/P2EA?pphase=01 HTTP/1.1" 200 523
0:0:0:0:0:0:0:1 - - [15/Nov/2020:21:29:17 +0100] "GET /sint33/P2EA?pphase=02 HTTP/1.1" 200 409
0:0:0:0:0:0:0:1 - - [15/Nov/2020:21:29:55 +0100] "GET /sint33/P2EA?pphase=01 HTTP/1.1" 200 523
0:0:0:0:0:0:0:1 - - [15/Nov/2020:21:29:56 +0100] "GET /sint33/P2EA?pphase=01 HTTP/1.1" 200 523
0:0:0:0:0:0:0:1 - - [15/Nov/2020:21:29:59 +0100] "GET /sint33/P2EA?pphase=01 HTTP/1.1" 200 523
0:0:0:0:0:0:0:1 - - [15/Nov/2020:21:30:06 +0100] "GET /sint33/P2EA?pphase=01 HTTP/1.1" 200 518
127.0.0.1 - - [15/Nov/2020:21:48:53 +0100] "GET /sint33/P2EA?pphase=01 HTTP/1.1" 200 518
127.0.0.1 - - [15/Nov/2020:21:49:10 +0100] "GET /sint33/P2EA?pphase=01 HTTP/1.1" 200 518
127.0.0.1 - - [15/Nov/2020:21:49:11 +0100] "GET /sint33/P2EA?pphase=01 HTTP/1.1" 200 518
127.0.0.1 - - [15/Nov/2020:21:49:11 +0100] "GET /sint33/P2EA?pphase=01 HTTP/1.1" 200 518
