127.0.0.1 - - [11/Dec/2020:09:35:29 +0100] "GET /sint33/p2/teleco.xml HTTP/1.1" 200 2057
127.0.0.1 - - [11/Dec/2020:09:35:29 +0100] "GET /sint33/p2/schema.xsd HTTP/1.1" 200 3195
127.0.0.1 - - [11/Dec/2020:09:35:29 +0100] "GET /sint33/p2/adeyinef.xml HTTP/1.1" 200 1369
127.0.0.1 - - [11/Dec/2020:09:35:29 +0100] "GET /sint33/p2/schema.xsd HTTP/1.1" 200 3195
127.0.0.1 - - [11/Dec/2020:09:35:29 +0100] "GET /sint33/p2/adeyinef.xml HTTP/1.1" 200 1369
127.0.0.1 - - [11/Dec/2020:09:35:29 +0100] "GET /sint33/p2/schema.xsd HTTP/1.1" 200 3195
127.0.0.1 - - [11/Dec/2020:09:35:29 +0100] "GET /sint33/p2/quimica.xml HTTP/1.1" 200 3244
127.0.0.1 - - [11/Dec/2020:09:35:29 +0100] "GET /sint33/p2/schema.xsd HTTP/1.1" 200 3195
127.0.0.1 - - [11/Dec/2020:09:35:29 +0100] "GET /sint33/p2/teleco.xml HTTP/1.1" 200 2057
127.0.0.1 - - [11/Dec/2020:09:35:29 +0100] "GET /sint33/p2/schema.xsd HTTP/1.1" 200 3195
127.0.0.1 - - [11/Dec/2020:09:35:29 +0100] "GET /sint33/p2/quimica.xml HTTP/1.1" 200 3244
127.0.0.1 - - [11/Dec/2020:09:35:29 +0100] "GET /sint33/p2/schema.xsd HTTP/1.1" 200 3195
127.0.0.1 - - [11/Dec/2020:09:35:29 +0100] "GET /sint33/p2/adeyinef.xml HTTP/1.1" 200 1369
127.0.0.1 - - [11/Dec/2020:09:35:29 +0100] "GET /sint33/p2/schema.xsd HTTP/1.1" 200 3195
127.0.0.1 - - [11/Dec/2020:09:35:29 +0100] "GET /sint33/p2/adeyinef.xml HTTP/1.1" 200 1369
127.0.0.1 - - [11/Dec/2020:09:35:29 +0100] "GET /sint33/p2/schema.xsd HTTP/1.1" 200 3195
127.0.0.1 - - [11/Dec/2020:09:35:29 +0100] "GET /sint33/p2/adeyinef.xml HTTP/1.1" 200 1369
127.0.0.1 - - [11/Dec/2020:09:35:29 +0100] "GET /sint33/p2/schema.xsd HTTP/1.1" 200 3195
127.0.0.1 - - [11/Dec/2020:09:35:30 +0100] "GET /sint33/p2/adeyinef.xml HTTP/1.1" 200 1369
127.0.0.1 - - [11/Dec/2020:09:35:30 +0100] "GET /sint33/p2/schema.xsd HTTP/1.1" 200 3195
0:0:0:0:0:0:0:1 - - [11/Dec/2020:09:35:30 +0100] "GET /sint33/P2EA?p=M@T30KRACK HTTP/1.1" 200 500
0:0:0:0:0:0:0:1 - - [11/Dec/2020:09:35:30 +0100] "GET /sint33/favicon.ico HTTP/1.1" 404 773
0:0:0:0:0:0:0:1 - - [11/Dec/2020:09:36:03 +0100] "GET /sint33/P2EA?p=M@T30KRACK&auto=true HTTP/1.1" 200 85
0:0:0:0:0:0:0:1 - - [11/Dec/2020:09:36:03 +0100] "GET /favicon.ico HTTP/1.1" 200 8192
127.0.0.1 - - [11/Dec/2020:09:37:31 +0100] "GET /sint33/p2/teleco.xml HTTP/1.1" 200 2057
127.0.0.1 - - [11/Dec/2020:09:37:31 +0100] "GET /sint33/p2/schema.xsd HTTP/1.1" 200 3195
127.0.0.1 - - [11/Dec/2020:09:37:31 +0100] "GET /sint33/p2/adeyinef.xml HTTP/1.1" 200 1369
127.0.0.1 - - [11/Dec/2020:09:37:31 +0100] "GET /sint33/p2/schema.xsd HTTP/1.1" 200 3195
127.0.0.1 - - [11/Dec/2020:09:37:31 +0100] "GET /sint33/p2/adeyinef.xml HTTP/1.1" 200 1369
127.0.0.1 - - [11/Dec/2020:09:37:31 +0100] "GET /sint33/p2/schema.xsd HTTP/1.1" 200 3195
127.0.0.1 - - [11/Dec/2020:09:37:31 +0100] "GET /sint33/p2/quimica.xml HTTP/1.1" 200 3244
127.0.0.1 - - [11/Dec/2020:09:37:31 +0100] "GET /sint33/p2/schema.xsd HTTP/1.1" 200 3195
127.0.0.1 - - [11/Dec/2020:09:37:31 +0100] "GET /sint33/p2/teleco.xml HTTP/1.1" 200 2057
127.0.0.1 - - [11/Dec/2020:09:37:31 +0100] "GET /sint33/p2/schema.xsd HTTP/1.1" 200 3195
127.0.0.1 - - [11/Dec/2020:09:37:31 +0100] "GET /sint33/p2/quimica.xml HTTP/1.1" 200 3244
127.0.0.1 - - [11/Dec/2020:09:37:31 +0100] "GET /sint33/p2/schema.xsd HTTP/1.1" 200 3195
127.0.0.1 - - [11/Dec/2020:09:37:31 +0100] "GET /sint33/p2/adeyinef.xml HTTP/1.1" 200 1369
127.0.0.1 - - [11/Dec/2020:09:37:31 +0100] "GET /sint33/p2/schema.xsd HTTP/1.1" 200 3195
127.0.0.1 - - [11/Dec/2020:09:37:31 +0100] "GET /sint33/p2/adeyinef.xml HTTP/1.1" 200 1369
127.0.0.1 - - [11/Dec/2020:09:37:31 +0100] "GET /sint33/p2/schema.xsd HTTP/1.1" 200 3195
127.0.0.1 - - [11/Dec/2020:09:37:31 +0100] "GET /sint33/p2/adeyinef.xml HTTP/1.1" 200 1369
127.0.0.1 - - [11/Dec/2020:09:37:31 +0100] "GET /sint33/p2/schema.xsd HTTP/1.1" 200 3195
127.0.0.1 - - [11/Dec/2020:09:37:31 +0100] "GET /sint33/p2/adeyinef.xml HTTP/1.1" 200 1369
127.0.0.1 - - [11/Dec/2020:09:37:31 +0100] "GET /sint33/p2/schema.xsd HTTP/1.1" 200 3195
0:0:0:0:0:0:0:1 - - [11/Dec/2020:09:37:31 +0100] "GET /sint33/P2EA?p=M@T30KRACK HTTP/1.1" 200 500
0:0:0:0:0:0:0:1 - - [11/Dec/2020:09:37:32 +0100] "GET /sint33/P2EA?pphase=11 HTTP/1.1" 200 655
0:0:0:0:0:0:0:1 - - [11/Dec/2020:09:37:36 +0100] "GET /sint33/P2EA?pphase=01 HTTP/1.1" 200 500
0:0:0:0:0:0:0:1 - - [11/Dec/2020:09:37:41 +0100] "GET /sint33/P2EA?pphase=01&auto=true HTTP/1.1" 200 77
0:0:0:0:0:0:0:1 - - [11/Dec/2020:09:38:06 +0100] "GET /sint33/P2EA?pphase=11&auto=true HTTP/1.1" 200 144
127.0.0.1 - - [11/Dec/2020:09:41:21 +0100] "GET /sint33/p2/teleco.xml HTTP/1.1" 200 2057
127.0.0.1 - - [11/Dec/2020:09:41:21 +0100] "GET /sint33/p2/schema.xsd HTTP/1.1" 200 3195
127.0.0.1 - - [11/Dec/2020:09:41:21 +0100] "GET /sint33/p2/adeyinef.xml HTTP/1.1" 200 1369
127.0.0.1 - - [11/Dec/2020:09:41:21 +0100] "GET /sint33/p2/schema.xsd HTTP/1.1" 200 3195
127.0.0.1 - - [11/Dec/2020:09:41:21 +0100] "GET /sint33/p2/adeyinef.xml HTTP/1.1" 200 1369
127.0.0.1 - - [11/Dec/2020:09:41:21 +0100] "GET /sint33/p2/schema.xsd HTTP/1.1" 200 3195
127.0.0.1 - - [11/Dec/2020:09:41:21 +0100] "GET /sint33/p2/quimica.xml HTTP/1.1" 200 3244
127.0.0.1 - - [11/Dec/2020:09:41:21 +0100] "GET /sint33/p2/schema.xsd HTTP/1.1" 200 3195
127.0.0.1 - - [11/Dec/2020:09:41:21 +0100] "GET /sint33/p2/teleco.xml HTTP/1.1" 200 2057
127.0.0.1 - - [11/Dec/2020:09:41:21 +0100] "GET /sint33/p2/schema.xsd HTTP/1.1" 200 3195
127.0.0.1 - - [11/Dec/2020:09:41:21 +0100] "GET /sint33/p2/quimica.xml HTTP/1.1" 200 3244
127.0.0.1 - - [11/Dec/2020:09:41:21 +0100] "GET /sint33/p2/schema.xsd HTTP/1.1" 200 3195
127.0.0.1 - - [11/Dec/2020:09:41:21 +0100] "GET /sint33/p2/adeyinef.xml HTTP/1.1" 200 1369
127.0.0.1 - - [11/Dec/2020:09:41:21 +0100] "GET /sint33/p2/schema.xsd HTTP/1.1" 200 3195
127.0.0.1 - - [11/Dec/2020:09:41:21 +0100] "GET /sint33/p2/adeyinef.xml HTTP/1.1" 200 1369
127.0.0.1 - - [11/Dec/2020:09:41:21 +0100] "GET /sint33/p2/schema.xsd HTTP/1.1" 200 3195
127.0.0.1 - - [11/Dec/2020:09:41:21 +0100] "GET /sint33/p2/adeyinef.xml HTTP/1.1" 200 1369
127.0.0.1 - - [11/Dec/2020:09:41:21 +0100] "GET /sint33/p2/schema.xsd HTTP/1.1" 200 3195
127.0.0.1 - - [11/Dec/2020:09:41:21 +0100] "GET /sint33/p2/adeyinef.xml HTTP/1.1" 200 1369
127.0.0.1 - - [11/Dec/2020:09:41:21 +0100] "GET /sint33/p2/schema.xsd HTTP/1.1" 200 3195
0:0:0:0:0:0:0:1 - - [11/Dec/2020:09:41:21 +0100] "GET /sint33/P2EA?pphase=00&auto=true HTTP/1.1" 200 269
0:0:0:0:0:0:0:1 - - [11/Dec/2020:09:41:37 +0100] "GET /sint33/P2EA?pphase=01&auto=true HTTP/1.1" 200 269
0:0:0:0:0:0:0:1 - - [11/Dec/2020:09:41:41 +0100] "GET /sint33/P2EA?pphase=01 HTTP/1.1" 200 269
0:0:0:0:0:0:0:1 - - [11/Dec/2020:09:41:43 +0100] "GET /sint33/P2EA?pphase=01 HTTP/1.1" 200 269
0:0:0:0:0:0:0:1 - - [11/Dec/2020:09:41:47 +0100] "GET /sint33/P2EA? HTTP/1.1" 200 269
0:0:0:0:0:0:0:1 - - [11/Dec/2020:09:41:50 +0100] "GET /sint33/P2EA? HTTP/1.1" 200 269
0:0:0:0:0:0:0:1 - - [11/Dec/2020:09:41:53 +0100] "GET /sint33/P2EA HTTP/1.1" 200 269
0:0:0:0:0:0:0:1 - - [11/Dec/2020:09:42:07 +0100] "GET /sint33/P2EA HTTP/1.1" 200 269
0:0:0:0:0:0:0:1 - - [11/Dec/2020:09:43:31 +0100] "GET /sint33/P2E HTTP/1.1" 404 765
127.0.0.1 - - [11/Dec/2020:09:43:34 +0100] "GET /sint33/p2/teleco.xml HTTP/1.1" 200 2057
127.0.0.1 - - [11/Dec/2020:09:43:34 +0100] "GET /sint33/p2/schema.xsd HTTP/1.1" 200 3195
127.0.0.1 - - [11/Dec/2020:09:43:34 +0100] "GET /sint33/p2/adeyinef.xml HTTP/1.1" 200 1369
127.0.0.1 - - [11/Dec/2020:09:43:34 +0100] "GET /sint33/p2/schema.xsd HTTP/1.1" 200 3195
127.0.0.1 - - [11/Dec/2020:09:43:34 +0100] "GET /sint33/p2/adeyinef.xml HTTP/1.1" 200 1369
127.0.0.1 - - [11/Dec/2020:09:43:34 +0100] "GET /sint33/p2/schema.xsd HTTP/1.1" 200 3195
127.0.0.1 - - [11/Dec/2020:09:43:34 +0100] "GET /sint33/p2/quimica.xml HTTP/1.1" 200 3244
127.0.0.1 - - [11/Dec/2020:09:43:34 +0100] "GET /sint33/p2/schema.xsd HTTP/1.1" 200 3195
127.0.0.1 - - [11/Dec/2020:09:43:34 +0100] "GET /sint33/p2/teleco.xml HTTP/1.1" 200 2057
127.0.0.1 - - [11/Dec/2020:09:43:34 +0100] "GET /sint33/p2/schema.xsd HTTP/1.1" 200 3195
127.0.0.1 - - [11/Dec/2020:09:43:34 +0100] "GET /sint33/p2/quimica.xml HTTP/1.1" 200 3244
127.0.0.1 - - [11/Dec/2020:09:43:34 +0100] "GET /sint33/p2/schema.xsd HTTP/1.1" 200 3195
127.0.0.1 - - [11/Dec/2020:09:43:34 +0100] "GET /sint33/p2/adeyinef.xml HTTP/1.1" 200 1369
127.0.0.1 - - [11/Dec/2020:09:43:34 +0100] "GET /sint33/p2/schema.xsd HTTP/1.1" 200 3195
127.0.0.1 - - [11/Dec/2020:09:43:34 +0100] "GET /sint33/p2/adeyinef.xml HTTP/1.1" 200 1369
127.0.0.1 - - [11/Dec/2020:09:43:34 +0100] "GET /sint33/p2/schema.xsd HTTP/1.1" 200 3195
127.0.0.1 - - [11/Dec/2020:09:43:34 +0100] "GET /sint33/p2/adeyinef.xml HTTP/1.1" 200 1369
127.0.0.1 - - [11/Dec/2020:09:43:34 +0100] "GET /sint33/p2/schema.xsd HTTP/1.1" 200 3195
127.0.0.1 - - [11/Dec/2020:09:43:34 +0100] "GET /sint33/p2/adeyinef.xml HTTP/1.1" 200 1369
127.0.0.1 - - [11/Dec/2020:09:43:34 +0100] "GET /sint33/p2/schema.xsd HTTP/1.1" 200 3195
0:0:0:0:0:0:0:1 - - [11/Dec/2020:09:43:34 +0100] "GET /sint33/P2EA HTTP/1.1" 200 269
0:0:0:0:0:0:0:1 - - [11/Dec/2020:09:44:12 +0100] "GET /sint33/P2EA&auto=true HTTP/1.1" 404 780
0:0:0:0:0:0:0:1 - - [11/Dec/2020:09:44:21 +0100] "GET /sint33/P2EA?auto=true HTTP/1.1" 200 269
0:0:0:0:0:0:0:1 - - [11/Dec/2020:09:44:25 +0100] "GET /sint33/P2EA?auto=false HTTP/1.1" 200 269
127.0.0.1 - - [11/Dec/2020:09:46:32 +0100] "GET /sint33/p2/teleco.xml HTTP/1.1" 200 2057
127.0.0.1 - - [11/Dec/2020:09:46:32 +0100] "GET /sint33/p2/schema.xsd HTTP/1.1" 200 3195
127.0.0.1 - - [11/Dec/2020:09:46:32 +0100] "GET /sint33/p2/adeyinef.xml HTTP/1.1" 200 1369
127.0.0.1 - - [11/Dec/2020:09:46:32 +0100] "GET /sint33/p2/schema.xsd HTTP/1.1" 200 3195
127.0.0.1 - - [11/Dec/2020:09:46:32 +0100] "GET /sint33/p2/adeyinef.xml HTTP/1.1" 200 1369
127.0.0.1 - - [11/Dec/2020:09:46:32 +0100] "GET /sint33/p2/schema.xsd HTTP/1.1" 200 3195
127.0.0.1 - - [11/Dec/2020:09:46:32 +0100] "GET /sint33/p2/quimica.xml HTTP/1.1" 200 3244
127.0.0.1 - - [11/Dec/2020:09:46:32 +0100] "GET /sint33/p2/schema.xsd HTTP/1.1" 200 3195
127.0.0.1 - - [11/Dec/2020:09:46:32 +0100] "GET /sint33/p2/teleco.xml HTTP/1.1" 200 2057
127.0.0.1 - - [11/Dec/2020:09:46:32 +0100] "GET /sint33/p2/schema.xsd HTTP/1.1" 200 3195
127.0.0.1 - - [11/Dec/2020:09:46:32 +0100] "GET /sint33/p2/quimica.xml HTTP/1.1" 200 3244
127.0.0.1 - - [11/Dec/2020:09:46:32 +0100] "GET /sint33/p2/schema.xsd HTTP/1.1" 200 3195
127.0.0.1 - - [11/Dec/2020:09:46:32 +0100] "GET /sint33/p2/adeyinef.xml HTTP/1.1" 200 1369
127.0.0.1 - - [11/Dec/2020:09:46:32 +0100] "GET /sint33/p2/schema.xsd HTTP/1.1" 200 3195
127.0.0.1 - - [11/Dec/2020:09:46:32 +0100] "GET /sint33/p2/adeyinef.xml HTTP/1.1" 200 1369
127.0.0.1 - - [11/Dec/2020:09:46:32 +0100] "GET /sint33/p2/schema.xsd HTTP/1.1" 200 3195
127.0.0.1 - - [11/Dec/2020:09:46:32 +0100] "GET /sint33/p2/adeyinef.xml HTTP/1.1" 200 1369
127.0.0.1 - - [11/Dec/2020:09:46:32 +0100] "GET /sint33/p2/schema.xsd HTTP/1.1" 200 3195
127.0.0.1 - - [11/Dec/2020:09:46:32 +0100] "GET /sint33/p2/adeyinef.xml HTTP/1.1" 200 1369
127.0.0.1 - - [11/Dec/2020:09:46:32 +0100] "GET /sint33/p2/schema.xsd HTTP/1.1" 200 3195
0:0:0:0:0:0:0:1 - - [11/Dec/2020:09:46:32 +0100] "GET /sint33/P2EA?auto=false HTTP/1.1" 200 269
0:0:0:0:0:0:0:1 - - [11/Dec/2020:09:46:36 +0100] "GET /sint33/P2EA HTTP/1.1" 200 269
0:0:0:0:0:0:0:1 - - [11/Dec/2020:09:48:09 +0100] "GET /sint33/P2EA HTTP/1.1" 200 269
127.0.0.1 - - [11/Dec/2020:09:48:21 +0100] "GET /sint33/p2/teleco.xml HTTP/1.1" 200 2057
127.0.0.1 - - [11/Dec/2020:09:48:21 +0100] "GET /sint33/p2/schema.xsd HTTP/1.1" 200 3195
127.0.0.1 - - [11/Dec/2020:09:48:21 +0100] "GET /sint33/p2/adeyinef.xml HTTP/1.1" 200 1369
127.0.0.1 - - [11/Dec/2020:09:48:21 +0100] "GET /sint33/p2/schema.xsd HTTP/1.1" 200 3195
127.0.0.1 - - [11/Dec/2020:09:48:21 +0100] "GET /sint33/p2/adeyinef.xml HTTP/1.1" 200 1369
127.0.0.1 - - [11/Dec/2020:09:48:21 +0100] "GET /sint33/p2/schema.xsd HTTP/1.1" 200 3195
127.0.0.1 - - [11/Dec/2020:09:48:21 +0100] "GET /sint33/p2/quimica.xml HTTP/1.1" 200 3244
127.0.0.1 - - [11/Dec/2020:09:48:21 +0100] "GET /sint33/p2/schema.xsd HTTP/1.1" 200 3195
127.0.0.1 - - [11/Dec/2020:09:48:21 +0100] "GET /sint33/p2/teleco.xml HTTP/1.1" 200 2057
127.0.0.1 - - [11/Dec/2020:09:48:21 +0100] "GET /sint33/p2/schema.xsd HTTP/1.1" 200 3195
127.0.0.1 - - [11/Dec/2020:09:48:21 +0100] "GET /sint33/p2/quimica.xml HTTP/1.1" 200 3244
127.0.0.1 - - [11/Dec/2020:09:48:21 +0100] "GET /sint33/p2/schema.xsd HTTP/1.1" 200 3195
127.0.0.1 - - [11/Dec/2020:09:48:21 +0100] "GET /sint33/p2/adeyinef.xml HTTP/1.1" 200 1369
127.0.0.1 - - [11/Dec/2020:09:48:21 +0100] "GET /sint33/p2/schema.xsd HTTP/1.1" 200 3195
127.0.0.1 - - [11/Dec/2020:09:48:21 +0100] "GET /sint33/p2/adeyinef.xml HTTP/1.1" 200 1369
127.0.0.1 - - [11/Dec/2020:09:48:21 +0100] "GET /sint33/p2/schema.xsd HTTP/1.1" 200 3195
127.0.0.1 - - [11/Dec/2020:09:48:21 +0100] "GET /sint33/p2/adeyinef.xml HTTP/1.1" 200 1369
127.0.0.1 - - [11/Dec/2020:09:48:21 +0100] "GET /sint33/p2/schema.xsd HTTP/1.1" 200 3195
127.0.0.1 - - [11/Dec/2020:09:48:21 +0100] "GET /sint33/p2/adeyinef.xml HTTP/1.1" 200 1369
127.0.0.1 - - [11/Dec/2020:09:48:21 +0100] "GET /sint33/p2/schema.xsd HTTP/1.1" 200 3195
0:0:0:0:0:0:0:1 - - [11/Dec/2020:09:48:21 +0100] "GET /sint33/P2EA?p=M@T30KRACK HTTP/1.1" 200 500
0:0:0:0:0:0:0:1 - - [11/Dec/2020:09:48:33 +0100] "GET /sint33/P2EA?p=M@T30KRACK&auto=true HTTP/1.1" 200 77
0:0:0:0:0:0:0:1 - - [11/Dec/2020:09:48:43 +0100] "GET /sint33/P2EA?p=M@T30KRACK&auto=true&pphase=01 HTTP/1.1" 200 77
0:0:0:0:0:0:0:1 - - [11/Dec/2020:09:48:46 +0100] "GET /sint33/P2EA?p=M@T30KRACK&auto=true&pphase=11 HTTP/1.1" 200 136
0:0:0:0:0:0:0:1 - - [11/Dec/2020:09:49:13 +0100] "GET /sint33/P2EA?p=M@T30KRACK&auto=true&pphase=01 HTTP/1.1" 200 77
0:0:0:0:0:0:0:1 - - [11/Dec/2020:09:49:38 +0100] "GET /sint33/P2EA?p=M@T30KRACK&auto=true&pphase=01 HTTP/1.1" 200 77
0:0:0:0:0:0:0:1 - - [11/Dec/2020:09:50:02 +0100] "GET /sint33/P2EA?p=M@T30KRACK&auto=false&pphase=01 HTTP/1.1" 200 77
0:0:0:0:0:0:0:1 - - [11/Dec/2020:09:50:12 +0100] "GET /sint33/P2EA?p=M@T30KRACK HTTP/1.1" 200 500
0:0:0:0:0:0:0:1 - - [11/Dec/2020:09:50:18 +0100] "GET /sint33/P2EA?p=M@T30KRACK HTTP/1.1" 200 500
0:0:0:0:0:0:0:1 - - [11/Dec/2020:09:51:14 +0100] "GET /sint33/P2EA?p=M@T30KRACK&auto=true&pphase=11 HTTP/1.1" 200 136
127.0.0.1 - - [11/Dec/2020:09:52:43 +0100] "GET /sint33/p2/teleco.xml HTTP/1.1" 200 2057
127.0.0.1 - - [11/Dec/2020:09:52:43 +0100] "GET /sint33/p2/schema.xsd HTTP/1.1" 200 3195
127.0.0.1 - - [11/Dec/2020:09:52:43 +0100] "GET /sint33/p2/adeyinef.xml HTTP/1.1" 200 1369
127.0.0.1 - - [11/Dec/2020:09:52:43 +0100] "GET /sint33/p2/schema.xsd HTTP/1.1" 200 3195
127.0.0.1 - - [11/Dec/2020:09:52:43 +0100] "GET /sint33/p2/adeyinef.xml HTTP/1.1" 200 1369
127.0.0.1 - - [11/Dec/2020:09:52:43 +0100] "GET /sint33/p2/schema.xsd HTTP/1.1" 200 3195
127.0.0.1 - - [11/Dec/2020:09:52:43 +0100] "GET /sint33/p2/quimica.xml HTTP/1.1" 200 3244
127.0.0.1 - - [11/Dec/2020:09:52:43 +0100] "GET /sint33/p2/schema.xsd HTTP/1.1" 200 3195
127.0.0.1 - - [11/Dec/2020:09:52:43 +0100] "GET /sint33/p2/teleco.xml HTTP/1.1" 200 2057
127.0.0.1 - - [11/Dec/2020:09:52:43 +0100] "GET /sint33/p2/schema.xsd HTTP/1.1" 200 3195
127.0.0.1 - - [11/Dec/2020:09:52:43 +0100] "GET /sint33/p2/quimica.xml HTTP/1.1" 200 3244
127.0.0.1 - - [11/Dec/2020:09:52:43 +0100] "GET /sint33/p2/schema.xsd HTTP/1.1" 200 3195
127.0.0.1 - - [11/Dec/2020:09:52:43 +0100] "GET /sint33/p2/adeyinef.xml HTTP/1.1" 200 1369
127.0.0.1 - - [11/Dec/2020:09:52:43 +0100] "GET /sint33/p2/schema.xsd HTTP/1.1" 200 3195
127.0.0.1 - - [11/Dec/2020:09:52:43 +0100] "GET /sint33/p2/adeyinef.xml HTTP/1.1" 200 1369
127.0.0.1 - - [11/Dec/2020:09:52:43 +0100] "GET /sint33/p2/schema.xsd HTTP/1.1" 200 3195
127.0.0.1 - - [11/Dec/2020:09:52:43 +0100] "GET /sint33/p2/adeyinef.xml HTTP/1.1" 200 1369
127.0.0.1 - - [11/Dec/2020:09:52:43 +0100] "GET /sint33/p2/schema.xsd HTTP/1.1" 200 3195
127.0.0.1 - - [11/Dec/2020:09:52:43 +0100] "GET /sint33/p2/adeyinef.xml HTTP/1.1" 200 1369
127.0.0.1 - - [11/Dec/2020:09:52:43 +0100] "GET /sint33/p2/schema.xsd HTTP/1.1" 200 3195
0:0:0:0:0:0:0:1 - - [11/Dec/2020:09:52:43 +0100] "GET /sint33/P2EA?p=M@T30KRACK&pphase=01 HTTP/1.1" 200 500
0:0:0:0:0:0:0:1 - - [11/Dec/2020:09:52:59 +0100] "GET /sint33/P2EA?p=M@T30KRACK HTTP/1.1" 200 500
0:0:0:0:0:0:0:1 - - [11/Dec/2020:09:53:01 +0100] "GET /sint33/P2EA?p=M@T30KRACK HTTP/1.1" 200 500
0:0:0:0:0:0:0:1 - - [11/Dec/2020:09:53:06 +0100] "GET /sint33/P2EA?p=M@T30KRACK&auto=ddb HTTP/1.1" 200 500
0:0:0:0:0:0:0:1 - - [11/Dec/2020:09:53:10 +0100] "GET /sint33/P2EA?p=M@T30KRACK&auto=true HTTP/1.1" 200 77
0:0:0:0:0:0:0:1 - - [11/Dec/2020:09:53:14 +0100] "GET /sint33/P2EA?p=M@T30KRACK&auto=false HTTP/1.1" 200 500
127.0.0.1 - - [11/Dec/2020:10:00:05 +0100] "GET /sint33/p2/teleco.xml HTTP/1.1" 200 2057
127.0.0.1 - - [11/Dec/2020:10:00:05 +0100] "GET /sint33/p2/schema.xsd HTTP/1.1" 200 3195
127.0.0.1 - - [11/Dec/2020:10:00:05 +0100] "GET /sint33/p2/adeyinef.xml HTTP/1.1" 200 1369
127.0.0.1 - - [11/Dec/2020:10:00:05 +0100] "GET /sint33/p2/schema.xsd HTTP/1.1" 200 3195
127.0.0.1 - - [11/Dec/2020:10:00:05 +0100] "GET /sint33/p2/adeyinef.xml HTTP/1.1" 200 1369
127.0.0.1 - - [11/Dec/2020:10:00:05 +0100] "GET /sint33/p2/schema.xsd HTTP/1.1" 200 3195
127.0.0.1 - - [11/Dec/2020:10:00:05 +0100] "GET /sint33/p2/quimica.xml HTTP/1.1" 200 3244
127.0.0.1 - - [11/Dec/2020:10:00:05 +0100] "GET /sint33/p2/schema.xsd HTTP/1.1" 200 3195
127.0.0.1 - - [11/Dec/2020:10:00:05 +0100] "GET /sint33/p2/teleco.xml HTTP/1.1" 200 2057
127.0.0.1 - - [11/Dec/2020:10:00:05 +0100] "GET /sint33/p2/schema.xsd HTTP/1.1" 200 3195
127.0.0.1 - - [11/Dec/2020:10:00:05 +0100] "GET /sint33/p2/quimica.xml HTTP/1.1" 200 3244
127.0.0.1 - - [11/Dec/2020:10:00:05 +0100] "GET /sint33/p2/schema.xsd HTTP/1.1" 200 3195
127.0.0.1 - - [11/Dec/2020:10:00:05 +0100] "GET /sint33/p2/adeyinef.xml HTTP/1.1" 200 1369
127.0.0.1 - - [11/Dec/2020:10:00:05 +0100] "GET /sint33/p2/schema.xsd HTTP/1.1" 200 3195
127.0.0.1 - - [11/Dec/2020:10:00:05 +0100] "GET /sint33/p2/adeyinef.xml HTTP/1.1" 200 1369
127.0.0.1 - - [11/Dec/2020:10:00:05 +0100] "GET /sint33/p2/schema.xsd HTTP/1.1" 200 3195
127.0.0.1 - - [11/Dec/2020:10:00:05 +0100] "GET /sint33/p2/adeyinef.xml HTTP/1.1" 200 1369
127.0.0.1 - - [11/Dec/2020:10:00:05 +0100] "GET /sint33/p2/schema.xsd HTTP/1.1" 200 3195
127.0.0.1 - - [11/Dec/2020:10:00:05 +0100] "GET /sint33/p2/adeyinef.xml HTTP/1.1" 200 1369
127.0.0.1 - - [11/Dec/2020:10:00:05 +0100] "GET /sint33/p2/schema.xsd HTTP/1.1" 200 3195
0:0:0:0:0:0:0:1 - - [11/Dec/2020:10:00:05 +0100] "GET /sint33/P2EA?p=M@T30KRACK&auto=false HTTP/1.1" 200 500
127.0.0.1 - - [11/Dec/2020:10:04:34 +0100] "GET /sint33/p2/teleco.xml HTTP/1.1" 200 2057
127.0.0.1 - - [11/Dec/2020:10:04:35 +0100] "GET /sint33/p2/schema.xsd HTTP/1.1" 200 3195
127.0.0.1 - - [11/Dec/2020:10:04:35 +0100] "GET /sint33/p2/adeyinef.xml HTTP/1.1" 200 1369
127.0.0.1 - - [11/Dec/2020:10:04:35 +0100] "GET /sint33/p2/schema.xsd HTTP/1.1" 200 3195
127.0.0.1 - - [11/Dec/2020:10:04:35 +0100] "GET /sint33/p2/adeyinef.xml HTTP/1.1" 200 1369
127.0.0.1 - - [11/Dec/2020:10:04:35 +0100] "GET /sint33/p2/schema.xsd HTTP/1.1" 200 3195
127.0.0.1 - - [11/Dec/2020:10:04:35 +0100] "GET /sint33/p2/quimica.xml HTTP/1.1" 200 3244
127.0.0.1 - - [11/Dec/2020:10:04:35 +0100] "GET /sint33/p2/schema.xsd HTTP/1.1" 200 3195
127.0.0.1 - - [11/Dec/2020:10:04:35 +0100] "GET /sint33/p2/teleco.xml HTTP/1.1" 200 2057
127.0.0.1 - - [11/Dec/2020:10:04:35 +0100] "GET /sint33/p2/schema.xsd HTTP/1.1" 200 3195
127.0.0.1 - - [11/Dec/2020:10:04:35 +0100] "GET /sint33/p2/quimica.xml HTTP/1.1" 200 3244
127.0.0.1 - - [11/Dec/2020:10:04:35 +0100] "GET /sint33/p2/schema.xsd HTTP/1.1" 200 3195
127.0.0.1 - - [11/Dec/2020:10:04:35 +0100] "GET /sint33/p2/adeyinef.xml HTTP/1.1" 200 1369
127.0.0.1 - - [11/Dec/2020:10:04:35 +0100] "GET /sint33/p2/schema.xsd HTTP/1.1" 200 3195
127.0.0.1 - - [11/Dec/2020:10:04:35 +0100] "GET /sint33/p2/adeyinef.xml HTTP/1.1" 200 1369
127.0.0.1 - - [11/Dec/2020:10:04:35 +0100] "GET /sint33/p2/schema.xsd HTTP/1.1" 200 3195
127.0.0.1 - - [11/Dec/2020:10:04:35 +0100] "GET /sint33/p2/adeyinef.xml HTTP/1.1" 200 1369
127.0.0.1 - - [11/Dec/2020:10:04:35 +0100] "GET /sint33/p2/schema.xsd HTTP/1.1" 200 3195
127.0.0.1 - - [11/Dec/2020:10:04:35 +0100] "GET /sint33/p2/adeyinef.xml HTTP/1.1" 200 1369
127.0.0.1 - - [11/Dec/2020:10:04:35 +0100] "GET /sint33/p2/schema.xsd HTTP/1.1" 200 3195
127.0.0.1 - - [11/Dec/2020:10:04:59 +0100] "GET /sint33/p2/teleco.xml HTTP/1.1" 200 2056
127.0.0.1 - - [11/Dec/2020:10:04:59 +0100] "GET /sint33/p2/schema.xsd HTTP/1.1" 200 3195
127.0.0.1 - - [11/Dec/2020:10:04:59 +0100] "GET /sint33/p2/adeyinef.xml HTTP/1.1" 200 1369
127.0.0.1 - - [11/Dec/2020:10:04:59 +0100] "GET /sint33/p2/schema.xsd HTTP/1.1" 200 3195
127.0.0.1 - - [11/Dec/2020:10:04:59 +0100] "GET /sint33/p2/adeyinef.xml HTTP/1.1" 200 1369
127.0.0.1 - - [11/Dec/2020:10:04:59 +0100] "GET /sint33/p2/schema.xsd HTTP/1.1" 200 3195
127.0.0.1 - - [11/Dec/2020:10:04:59 +0100] "GET /sint33/p2/quimica.xml HTTP/1.1" 200 3244
127.0.0.1 - - [11/Dec/2020:10:04:59 +0100] "GET /sint33/p2/schema.xsd HTTP/1.1" 200 3195
127.0.0.1 - - [11/Dec/2020:10:04:59 +0100] "GET /sint33/p2/teleco.xml HTTP/1.1" 200 2056
127.0.0.1 - - [11/Dec/2020:10:04:59 +0100] "GET /sint33/p2/schema.xsd HTTP/1.1" 200 3195
127.0.0.1 - - [11/Dec/2020:10:04:59 +0100] "GET /sint33/p2/quimica.xml HTTP/1.1" 200 3244
127.0.0.1 - - [11/Dec/2020:10:04:59 +0100] "GET /sint33/p2/schema.xsd HTTP/1.1" 200 3195
127.0.0.1 - - [11/Dec/2020:10:04:59 +0100] "GET /sint33/p2/adeyinef.xml HTTP/1.1" 200 1369
127.0.0.1 - - [11/Dec/2020:10:04:59 +0100] "GET /sint33/p2/schema.xsd HTTP/1.1" 200 3195
127.0.0.1 - - [11/Dec/2020:10:04:59 +0100] "GET /sint33/p2/adeyinef.xml HTTP/1.1" 200 1369
127.0.0.1 - - [11/Dec/2020:10:04:59 +0100] "GET /sint33/p2/schema.xsd HTTP/1.1" 200 3195
127.0.0.1 - - [11/Dec/2020:10:04:59 +0100] "GET /sint33/p2/adeyinef.xml HTTP/1.1" 200 1369
127.0.0.1 - - [11/Dec/2020:10:04:59 +0100] "GET /sint33/p2/schema.xsd HTTP/1.1" 200 3195
127.0.0.1 - - [11/Dec/2020:10:04:59 +0100] "GET /sint33/p2/adeyinef.xml HTTP/1.1" 200 1369
127.0.0.1 - - [11/Dec/2020:10:04:59 +0100] "GET /sint33/p2/schema.xsd HTTP/1.1" 200 3195
0:0:0:0:0:0:0:1 - - [11/Dec/2020:10:05:59 +0100] "GET /sint33/P2EA?p=M@T30KRACK&auto=false HTTP/1.1" 200 500
127.0.0.1 - - [11/Dec/2020:10:08:09 +0100] "GET /sint33/p2/teleco.xml HTTP/1.1" 200 2056
127.0.0.1 - - [11/Dec/2020:10:08:09 +0100] "GET /sint33/p2/schema.xsd HTTP/1.1" 200 3195
127.0.0.1 - - [11/Dec/2020:10:08:09 +0100] "GET /sint33/p2/adeyinef.xml HTTP/1.1" 200 1369
127.0.0.1 - - [11/Dec/2020:10:08:09 +0100] "GET /sint33/p2/schema.xsd HTTP/1.1" 200 3195
127.0.0.1 - - [11/Dec/2020:10:08:09 +0100] "GET /sint33/p2/adeyinef.xml HTTP/1.1" 200 1369
127.0.0.1 - - [11/Dec/2020:10:08:09 +0100] "GET /sint33/p2/schema.xsd HTTP/1.1" 200 3195
127.0.0.1 - - [11/Dec/2020:10:08:09 +0100] "GET /sint33/p2/quimica.xml HTTP/1.1" 200 3244
127.0.0.1 - - [11/Dec/2020:10:08:09 +0100] "GET /sint33/p2/schema.xsd HTTP/1.1" 200 3195
127.0.0.1 - - [11/Dec/2020:10:08:09 +0100] "GET /sint33/p2/teleco.xml HTTP/1.1" 200 2056
127.0.0.1 - - [11/Dec/2020:10:08:09 +0100] "GET /sint33/p2/schema.xsd HTTP/1.1" 200 3195
127.0.0.1 - - [11/Dec/2020:10:08:09 +0100] "GET /sint33/p2/quimica.xml HTTP/1.1" 200 3244
127.0.0.1 - - [11/Dec/2020:10:08:09 +0100] "GET /sint33/p2/schema.xsd HTTP/1.1" 200 3195
127.0.0.1 - - [11/Dec/2020:10:08:09 +0100] "GET /sint33/p2/adeyinef.xml HTTP/1.1" 200 1369
127.0.0.1 - - [11/Dec/2020:10:08:09 +0100] "GET /sint33/p2/schema.xsd HTTP/1.1" 200 3195
127.0.0.1 - - [11/Dec/2020:10:08:09 +0100] "GET /sint33/p2/adeyinef.xml HTTP/1.1" 200 1369
127.0.0.1 - - [11/Dec/2020:10:08:09 +0100] "GET /sint33/p2/schema.xsd HTTP/1.1" 200 3195
127.0.0.1 - - [11/Dec/2020:10:08:09 +0100] "GET /sint33/p2/adeyinef.xml HTTP/1.1" 200 1369
127.0.0.1 - - [11/Dec/2020:10:08:09 +0100] "GET /sint33/p2/schema.xsd HTTP/1.1" 200 3195
127.0.0.1 - - [11/Dec/2020:10:08:09 +0100] "GET /sint33/p2/adeyinef.xml HTTP/1.1" 200 1369
127.0.0.1 - - [11/Dec/2020:10:08:09 +0100] "GET /sint33/p2/schema.xsd HTTP/1.1" 200 3195
0:0:0:0:0:0:0:1 - - [11/Dec/2020:10:08:09 +0100] "GET /sint33/P2EA?p=M@T30KRACK&auto=false HTTP/1.1" 200 500
127.0.0.1 - - [11/Dec/2020:10:28:07 +0100] "GET /sint33/p2/teleco.xml HTTP/1.1" 200 2057
127.0.0.1 - - [11/Dec/2020:10:28:07 +0100] "GET /sint33/p2/schema.xsd HTTP/1.1" 200 3195
127.0.0.1 - - [11/Dec/2020:10:28:07 +0100] "GET /sint33/p2/adeyinef.xml HTTP/1.1" 200 1369
127.0.0.1 - - [11/Dec/2020:10:28:07 +0100] "GET /sint33/p2/schema.xsd HTTP/1.1" 200 3195
127.0.0.1 - - [11/Dec/2020:10:28:07 +0100] "GET /sint33/p2/adeyinef.xml HTTP/1.1" 200 1369
127.0.0.1 - - [11/Dec/2020:10:28:07 +0100] "GET /sint33/p2/schema.xsd HTTP/1.1" 200 3195
127.0.0.1 - - [11/Dec/2020:10:28:07 +0100] "GET /sint33/p2/quimica.xml HTTP/1.1" 200 3244
127.0.0.1 - - [11/Dec/2020:10:28:07 +0100] "GET /sint33/p2/schema.xsd HTTP/1.1" 200 3195
127.0.0.1 - - [11/Dec/2020:10:28:07 +0100] "GET /sint33/p2/teleco.xml HTTP/1.1" 200 2057
127.0.0.1 - - [11/Dec/2020:10:28:07 +0100] "GET /sint33/p2/schema.xsd HTTP/1.1" 200 3195
127.0.0.1 - - [11/Dec/2020:10:28:07 +0100] "GET /sint33/p2/quimica.xml HTTP/1.1" 200 3244
127.0.0.1 - - [11/Dec/2020:10:28:07 +0100] "GET /sint33/p2/schema.xsd HTTP/1.1" 200 3195
127.0.0.1 - - [11/Dec/2020:10:28:07 +0100] "GET /sint33/p2/adeyinef.xml HTTP/1.1" 200 1369
127.0.0.1 - - [11/Dec/2020:10:28:07 +0100] "GET /sint33/p2/schema.xsd HTTP/1.1" 200 3195
127.0.0.1 - - [11/Dec/2020:10:28:07 +0100] "GET /sint33/p2/adeyinef.xml HTTP/1.1" 200 1369
127.0.0.1 - - [11/Dec/2020:10:28:07 +0100] "GET /sint33/p2/schema.xsd HTTP/1.1" 200 3195
127.0.0.1 - - [11/Dec/2020:10:28:07 +0100] "GET /sint33/p2/adeyinef.xml HTTP/1.1" 200 1369
127.0.0.1 - - [11/Dec/2020:10:28:07 +0100] "GET /sint33/p2/schema.xsd HTTP/1.1" 200 3195
127.0.0.1 - - [11/Dec/2020:10:28:07 +0100] "GET /sint33/p2/adeyinef.xml HTTP/1.1" 200 1369
127.0.0.1 - - [11/Dec/2020:10:28:07 +0100] "GET /sint33/p2/schema.xsd HTTP/1.1" 200 3195
0:0:0:0:0:0:0:1 - - [11/Dec/2020:10:28:07 +0100] "GET /sint33/P2EA?p=M@T30KRACK HTTP/1.1" 200 526
0:0:0:0:0:0:0:1 - - [11/Dec/2020:10:28:12 +0100] "GET /sint33/P2EA?p=M@T30KRACK&pphase=11 HTTP/1.1" 200 658
0:0:0:0:0:0:0:1 - - [11/Dec/2020:10:28:20 +0100] "GET /sint33/P2EA?p=M@T30KRACKpphase=01 HTTP/1.1" 200 526
127.0.0.1 - - [11/Dec/2020:10:29:49 +0100] "GET /sint33/p2/teleco.xml HTTP/1.1" 200 2057
127.0.0.1 - - [11/Dec/2020:10:29:49 +0100] "GET /sint33/p2/schema.xsd HTTP/1.1" 200 3195
127.0.0.1 - - [11/Dec/2020:10:29:49 +0100] "GET /sint33/p2/adeyinef.xml HTTP/1.1" 200 1369
127.0.0.1 - - [11/Dec/2020:10:29:49 +0100] "GET /sint33/p2/schema.xsd HTTP/1.1" 200 3195
127.0.0.1 - - [11/Dec/2020:10:29:49 +0100] "GET /sint33/p2/adeyinef.xml HTTP/1.1" 200 1369
127.0.0.1 - - [11/Dec/2020:10:29:49 +0100] "GET /sint33/p2/schema.xsd HTTP/1.1" 200 3195
127.0.0.1 - - [11/Dec/2020:10:29:49 +0100] "GET /sint33/p2/quimica.xml HTTP/1.1" 200 3244
127.0.0.1 - - [11/Dec/2020:10:29:49 +0100] "GET /sint33/p2/schema.xsd HTTP/1.1" 200 3195
127.0.0.1 - - [11/Dec/2020:10:29:49 +0100] "GET /sint33/p2/teleco.xml HTTP/1.1" 200 2057
127.0.0.1 - - [11/Dec/2020:10:29:49 +0100] "GET /sint33/p2/schema.xsd HTTP/1.1" 200 3195
127.0.0.1 - - [11/Dec/2020:10:29:49 +0100] "GET /sint33/p2/quimica.xml HTTP/1.1" 200 3244
127.0.0.1 - - [11/Dec/2020:10:29:49 +0100] "GET /sint33/p2/schema.xsd HTTP/1.1" 200 3195
127.0.0.1 - - [11/Dec/2020:10:29:50 +0100] "GET /sint33/p2/adeyinef.xml HTTP/1.1" 200 1369
127.0.0.1 - - [11/Dec/2020:10:29:50 +0100] "GET /sint33/p2/schema.xsd HTTP/1.1" 200 3195
127.0.0.1 - - [11/Dec/2020:10:29:50 +0100] "GET /sint33/p2/adeyinef.xml HTTP/1.1" 200 1369
127.0.0.1 - - [11/Dec/2020:10:29:50 +0100] "GET /sint33/p2/schema.xsd HTTP/1.1" 200 3195
127.0.0.1 - - [11/Dec/2020:10:29:50 +0100] "GET /sint33/p2/adeyinef.xml HTTP/1.1" 200 1369
127.0.0.1 - - [11/Dec/2020:10:29:50 +0100] "GET /sint33/p2/schema.xsd HTTP/1.1" 200 3195
127.0.0.1 - - [11/Dec/2020:10:29:50 +0100] "GET /sint33/p2/adeyinef.xml HTTP/1.1" 200 1369
127.0.0.1 - - [11/Dec/2020:10:29:50 +0100] "GET /sint33/p2/schema.xsd HTTP/1.1" 200 3195
0:0:0:0:0:0:0:1 - - [11/Dec/2020:10:29:50 +0100] "GET /sint33/P2EA?p=M@T30KRAC HTTP/1.1" 200 269
0:0:0:0:0:0:0:1 - - [11/Dec/2020:10:29:53 +0100] "GET /sint33/P2EA?p=M@T30KRACK HTTP/1.1" 200 526
0:0:0:0:0:0:0:1 - - [11/Dec/2020:10:29:55 +0100] "GET /sint33/P2EA?p=M@T30KRACK&pphase=11 HTTP/1.1" 200 659
0:0:0:0:0:0:0:1 - - [11/Dec/2020:10:29:58 +0100] "GET /sint33/P2EA?p=M@T30KRACK&pphase=12&pdegree=Quimica HTTP/1.1" 200 785
0:0:0:0:0:0:0:1 - - [11/Dec/2020:10:30:08 +0100] "GET /sint33/P2EA?pphase=0 HTTP/1.1" 200 269
0:0:0:0:0:0:0:1 - - [11/Dec/2020:10:30:10 +0100] "GET /favicon.ico HTTP/1.1" 200 8192
0:0:0:0:0:0:0:1 - - [11/Dec/2020:10:30:12 +0100] "GET /sint33/P2EA?pphase=11 HTTP/1.1" 200 269
127.0.0.1 - - [11/Dec/2020:10:34:28 +0100] "GET /sint33/p2/teleco.xml HTTP/1.1" 200 2057
127.0.0.1 - - [11/Dec/2020:10:34:28 +0100] "GET /sint33/p2/schema.xsd HTTP/1.1" 200 3195
127.0.0.1 - - [11/Dec/2020:10:34:28 +0100] "GET /sint33/p2/adeyinef.xml HTTP/1.1" 200 1369
127.0.0.1 - - [11/Dec/2020:10:34:28 +0100] "GET /sint33/p2/schema.xsd HTTP/1.1" 200 3195
127.0.0.1 - - [11/Dec/2020:10:34:28 +0100] "GET /sint33/p2/adeyinef.xml HTTP/1.1" 200 1369
127.0.0.1 - - [11/Dec/2020:10:34:28 +0100] "GET /sint33/p2/schema.xsd HTTP/1.1" 200 3195
127.0.0.1 - - [11/Dec/2020:10:34:28 +0100] "GET /sint33/p2/quimica.xml HTTP/1.1" 200 3244
127.0.0.1 - - [11/Dec/2020:10:34:28 +0100] "GET /sint33/p2/schema.xsd HTTP/1.1" 200 3195
127.0.0.1 - - [11/Dec/2020:10:34:28 +0100] "GET /sint33/p2/teleco.xml HTTP/1.1" 200 2057
127.0.0.1 - - [11/Dec/2020:10:34:28 +0100] "GET /sint33/p2/schema.xsd HTTP/1.1" 200 3195
127.0.0.1 - - [11/Dec/2020:10:34:28 +0100] "GET /sint33/p2/quimica.xml HTTP/1.1" 200 3244
127.0.0.1 - - [11/Dec/2020:10:34:28 +0100] "GET /sint33/p2/schema.xsd HTTP/1.1" 200 3195
127.0.0.1 - - [11/Dec/2020:10:34:28 +0100] "GET /sint33/p2/adeyinef.xml HTTP/1.1" 200 1369
127.0.0.1 - - [11/Dec/2020:10:34:28 +0100] "GET /sint33/p2/schema.xsd HTTP/1.1" 200 3195
127.0.0.1 - - [11/Dec/2020:10:34:28 +0100] "GET /sint33/p2/adeyinef.xml HTTP/1.1" 200 1369
127.0.0.1 - - [11/Dec/2020:10:34:28 +0100] "GET /sint33/p2/schema.xsd HTTP/1.1" 200 3195
127.0.0.1 - - [11/Dec/2020:10:34:28 +0100] "GET /sint33/p2/adeyinef.xml HTTP/1.1" 200 1369
127.0.0.1 - - [11/Dec/2020:10:34:28 +0100] "GET /sint33/p2/schema.xsd HTTP/1.1" 200 3195
127.0.0.1 - - [11/Dec/2020:10:34:28 +0100] "GET /sint33/p2/adeyinef.xml HTTP/1.1" 200 1369
127.0.0.1 - - [11/Dec/2020:10:34:28 +0100] "GET /sint33/p2/schema.xsd HTTP/1.1" 200 3195
0:0:0:0:0:0:0:1 - - [11/Dec/2020:10:34:28 +0100] "GET /sint33/P2EA?pphase=11 HTTP/1.1" 200 269
0:0:0:0:0:0:0:1 - - [11/Dec/2020:10:34:35 +0100] "GET /sint33/P2EA?p=M@T30KRACK HTTP/1.1" 200 526
0:0:0:0:0:0:0:1 - - [11/Dec/2020:10:34:40 +0100] "GET /sint33/P2EA?p=M@T30KRACK&pphase=02 HTTP/1.1" 200 486
0:0:0:0:0:0:0:1 - - [11/Dec/2020:10:37:34 +0100] "GET /sint33/P2EA?p=M@T30KRACK HTTP/1.1" 200 526
0:0:0:0:0:0:0:1 - - [11/Dec/2020:10:37:36 +0100] "GET /sint33/P2EA?p=M@T30KRACK&pphase=02 HTTP/1.1" 200 486
127.0.0.1 - - [11/Dec/2020:10:39:04 +0100] "GET /sint33/p2/teleco.xml HTTP/1.1" 200 2057
127.0.0.1 - - [11/Dec/2020:10:39:04 +0100] "GET /sint33/p2/schema.xsd HTTP/1.1" 200 3195
127.0.0.1 - - [11/Dec/2020:10:39:04 +0100] "GET /sint33/p2/adeyinef.xml HTTP/1.1" 200 1369
127.0.0.1 - - [11/Dec/2020:10:39:04 +0100] "GET /sint33/p2/schema.xsd HTTP/1.1" 200 3195
127.0.0.1 - - [11/Dec/2020:10:39:04 +0100] "GET /sint33/p2/adeyinef.xml HTTP/1.1" 200 1369
127.0.0.1 - - [11/Dec/2020:10:39:04 +0100] "GET /sint33/p2/schema.xsd HTTP/1.1" 200 3195
127.0.0.1 - - [11/Dec/2020:10:39:04 +0100] "GET /sint33/p2/quimica.xml HTTP/1.1" 200 3244
127.0.0.1 - - [11/Dec/2020:10:39:04 +0100] "GET /sint33/p2/schema.xsd HTTP/1.1" 200 3195
127.0.0.1 - - [11/Dec/2020:10:39:04 +0100] "GET /sint33/p2/teleco.xml HTTP/1.1" 200 2057
127.0.0.1 - - [11/Dec/2020:10:39:04 +0100] "GET /sint33/p2/schema.xsd HTTP/1.1" 200 3195
127.0.0.1 - - [11/Dec/2020:10:39:04 +0100] "GET /sint33/p2/quimica.xml HTTP/1.1" 200 3244
127.0.0.1 - - [11/Dec/2020:10:39:04 +0100] "GET /sint33/p2/schema.xsd HTTP/1.1" 200 3195
127.0.0.1 - - [11/Dec/2020:10:39:04 +0100] "GET /sint33/p2/adeyinef.xml HTTP/1.1" 200 1369
127.0.0.1 - - [11/Dec/2020:10:39:04 +0100] "GET /sint33/p2/schema.xsd HTTP/1.1" 200 3195
127.0.0.1 - - [11/Dec/2020:10:39:04 +0100] "GET /sint33/p2/adeyinef.xml HTTP/1.1" 200 1369
127.0.0.1 - - [11/Dec/2020:10:39:04 +0100] "GET /sint33/p2/schema.xsd HTTP/1.1" 200 3195
127.0.0.1 - - [11/Dec/2020:10:39:04 +0100] "GET /sint33/p2/adeyinef.xml HTTP/1.1" 200 1369
127.0.0.1 - - [11/Dec/2020:10:39:04 +0100] "GET /sint33/p2/schema.xsd HTTP/1.1" 200 3195
127.0.0.1 - - [11/Dec/2020:10:39:04 +0100] "GET /sint33/p2/adeyinef.xml HTTP/1.1" 200 1369
127.0.0.1 - - [11/Dec/2020:10:39:04 +0100] "GET /sint33/p2/schema.xsd HTTP/1.1" 200 3195
0:0:0:0:0:0:0:1 - - [11/Dec/2020:10:39:04 +0100] "GET /sint33/P2EA?p=M@T30KRACK&pphase=11 HTTP/1.1" 200 659
0:0:0:0:0:0:0:1 - - [11/Dec/2020:10:39:08 +0100] "GET /sint33/P2EA?p=M@T30KRACK&pphase=02 HTTP/1.1" 200 495
0:0:0:0:0:0:0:1 - - [11/Dec/2020:10:39:10 +0100] "GET /sint33/P2EA?p=M@T30KRACK&pphase=01 HTTP/1.1" 200 526
0:0:0:0:0:0:0:1 - - [11/Dec/2020:23:55:43 +0100] "GET /sint33/P2EA?p=M@T30KRACK HTTP/1.1" 200 526
0:0:0:0:0:0:0:1 - - [11/Dec/2020:23:55:44 +0100] "GET /sint33/favicon.ico HTTP/1.1" 404 773
0:0:0:0:0:0:0:1 - - [11/Dec/2020:23:55:45 +0100] "GET /sint33/P2EA?p=M@T30KRACK&pphase=11 HTTP/1.1" 200 659
0:0:0:0:0:0:0:1 - - [11/Dec/2020:23:55:47 +0100] "GET /sint33/P2EA?p=M@T30KRACK&pphase=12&pdegree=AdeyINEF HTTP/1.1" 200 634
0:0:0:0:0:0:0:1 - - [11/Dec/2020:23:55:53 +0100] "GET /sint33/P2EA?p=M@T30KRACK&pphase=11 HTTP/1.1" 200 659
0:0:0:0:0:0:0:1 - - [11/Dec/2020:23:55:54 +0100] "GET /sint33/P2EA?p=M@T30KRACK&pphase=01 HTTP/1.1" 200 526
127.0.0.1 - - [11/Dec/2020:23:59:44 +0100] "GET /sint33/p2/teleco.xml HTTP/1.1" 200 2057
127.0.0.1 - - [11/Dec/2020:23:59:44 +0100] "GET /sint33/p2/schema.xsd HTTP/1.1" 200 3195
127.0.0.1 - - [11/Dec/2020:23:59:44 +0100] "GET /sint33/p2/adeyinef.xml HTTP/1.1" 200 1369
127.0.0.1 - - [11/Dec/2020:23:59:44 +0100] "GET /sint33/p2/schema.xsd HTTP/1.1" 200 3195
127.0.0.1 - - [11/Dec/2020:23:59:44 +0100] "GET /sint33/p2/adeyinef.xml HTTP/1.1" 200 1369
127.0.0.1 - - [11/Dec/2020:23:59:44 +0100] "GET /sint33/p2/schema.xsd HTTP/1.1" 200 3195
127.0.0.1 - - [11/Dec/2020:23:59:44 +0100] "GET /sint33/p2/quimica.xml HTTP/1.1" 200 3244
127.0.0.1 - - [11/Dec/2020:23:59:44 +0100] "GET /sint33/p2/schema.xsd HTTP/1.1" 200 3195
127.0.0.1 - - [11/Dec/2020:23:59:44 +0100] "GET /sint33/p2/teleco.xml HTTP/1.1" 200 2057
127.0.0.1 - - [11/Dec/2020:23:59:44 +0100] "GET /sint33/p2/schema.xsd HTTP/1.1" 200 3195
127.0.0.1 - - [11/Dec/2020:23:59:44 +0100] "GET /sint33/p2/quimica.xml HTTP/1.1" 200 3244
127.0.0.1 - - [11/Dec/2020:23:59:44 +0100] "GET /sint33/p2/schema.xsd HTTP/1.1" 200 3195
127.0.0.1 - - [11/Dec/2020:23:59:44 +0100] "GET /sint33/p2/adeyinef.xml HTTP/1.1" 200 1369
127.0.0.1 - - [11/Dec/2020:23:59:44 +0100] "GET /sint33/p2/schema.xsd HTTP/1.1" 200 3195
127.0.0.1 - - [11/Dec/2020:23:59:44 +0100] "GET /sint33/p2/adeyinef.xml HTTP/1.1" 200 1369
127.0.0.1 - - [11/Dec/2020:23:59:44 +0100] "GET /sint33/p2/schema.xsd HTTP/1.1" 200 3195
127.0.0.1 - - [11/Dec/2020:23:59:44 +0100] "GET /sint33/p2/adeyinef.xml HTTP/1.1" 200 1369
127.0.0.1 - - [11/Dec/2020:23:59:44 +0100] "GET /sint33/p2/schema.xsd HTTP/1.1" 200 3195
127.0.0.1 - - [11/Dec/2020:23:59:44 +0100] "GET /sint33/p2/adeyinef.xml HTTP/1.1" 200 1369
127.0.0.1 - - [11/Dec/2020:23:59:44 +0100] "GET /sint33/p2/schema.xsd HTTP/1.1" 200 3195
0:0:0:0:0:0:0:1 - - [11/Dec/2020:23:59:44 +0100] "GET /sint33/P2EA?p=M@T30KRACK&pphase=01 HTTP/1.1" 200 526
0:0:0:0:0:0:0:1 - - [11/Dec/2020:23:59:44 +0100] "GET /sint33/favicon.ico HTTP/1.1" 404 773
0:0:0:0:0:0:0:1 - - [11/Dec/2020:23:59:47 +0100] "GET /sint33/P2EA?p=M@T30KRACK&pphase=01 HTTP/1.1" 200 526
0:0:0:0:0:0:0:1 - - [11/Dec/2020:23:59:52 +0100] "GET /sint33/P2EA?p=M@T30KRAC&pphase=01 HTTP/1.1" 200 269
0:0:0:0:0:0:0:1 - - [11/Dec/2020:23:59:55 +0100] "GET /sint33/P2EA?p=M@T30KRACK&pphase=01 HTTP/1.1" 200 526
0:0:0:0:0:0:0:1 - - [11/Dec/2020:23:59:57 +0100] "GET /sint33/P2EA?p=M@T30KRACK&pphase=11 HTTP/1.1" 200 659
0:0:0:0:0:0:0:1 - - [11/Dec/2020:23:59:59 +0100] "GET /sint33/P2EA?p=M@T30KRACK&pphase=01 HTTP/1.1" 200 526
