0:0:0:0:0:0:0:1 - - [14/Dec/2020:14:26:42 +0100] "GET /sint33/P2EA?p=M@T30KRACK HTTP/1.1" 200 526
0:0:0:0:0:0:0:1 - - [14/Dec/2020:14:26:42 +0100] "GET /sint33/favicon.ico HTTP/1.1" 404 773
0:0:0:0:0:0:0:1 - - [14/Dec/2020:14:26:44 +0100] "GET /sint33/P2EA?p=M@T30KRACK&pphase=11 HTTP/1.1" 200 440
0:0:0:0:0:0:0:1 - - [14/Dec/2020:14:27:20 +0100] "GET /sint33/P2EA?p=M@T30KRACK&pphase=01 HTTP/1.1" 200 526
0:0:0:0:0:0:0:1 - - [14/Dec/2020:14:27:21 +0100] "GET /sint33/P2EA?p=M@T30KRACK&pphase=02 HTTP/1.1" 200 1058
0:0:0:0:0:0:0:1 - - [14/Dec/2020:14:27:51 +0100] "GET /sint33/P2EA?p=M@T30KRACK&pphase=02 HTTP/1.1" 200 1058
0:0:0:0:0:0:0:1 - - [14/Dec/2020:14:27:52 +0100] "GET /sint33/P2EA?p=M@T30KRACK&pphase=02 HTTP/1.1" 200 1058
0:0:0:0:0:0:0:1 - - [14/Dec/2020:14:27:52 +0100] "GET /sint33/P2EA?p=M@T30KRACK&pphase=02 HTTP/1.1" 200 1058
0:0:0:0:0:0:0:1 - - [14/Dec/2020:14:27:53 +0100] "GET /sint33/P2EA?p=M@T30KRACK&pphase=02 HTTP/1.1" 200 1058
0:0:0:0:0:0:0:1 - - [14/Dec/2020:14:27:53 +0100] "GET /sint33/P2EA?p=M@T30KRACK&pphase=02 HTTP/1.1" 200 1058
0:0:0:0:0:0:0:1 - - [14/Dec/2020:14:27:53 +0100] "GET /sint33/P2EA?p=M@T30KRACK&pphase=02 HTTP/1.1" 200 1058
0:0:0:0:0:0:0:1 - - [14/Dec/2020:14:27:53 +0100] "GET /sint33/P2EA?p=M@T30KRACK&pphase=02 HTTP/1.1" 200 1058
0:0:0:0:0:0:0:1 - - [14/Dec/2020:14:27:53 +0100] "GET /sint33/P2EA?p=M@T30KRACK&pphase=02 HTTP/1.1" 200 1058
0:0:0:0:0:0:0:1 - - [14/Dec/2020:14:27:55 +0100] "GET /sint33/P2EA?p=M@T30KRACK&pphase=01 HTTP/1.1" 200 526
0:0:0:0:0:0:0:1 - - [14/Dec/2020:14:28:01 +0100] "GET /sint33/P2EA?p=M@T30KRACK&pphase=01 HTTP/1.1" 200 526
0:0:0:0:0:0:0:1 - - [14/Dec/2020:14:28:03 +0100] "GET /sint33/P2EA?p=M@T30KRACK&pphase=02 HTTP/1.1" 200 1058
0:0:0:0:0:0:0:1 - - [14/Dec/2020:14:30:13 +0100] "GET /sint33/P2EA?p=M@T30KRACK&pphase=01 HTTP/1.1" 200 526
0:0:0:0:0:0:0:1 - - [14/Dec/2020:14:30:18 +0100] "GET /sint33/P2EA?p=M@T30KRACK&pphase=01 HTTP/1.1" 200 526
0:0:0:0:0:0:0:1 - - [14/Dec/2020:14:30:19 +0100] "GET /sint33/P2EA?p=M@T30KRACK&pphase=01 HTTP/1.1" 200 526
0:0:0:0:0:0:0:1 - - [14/Dec/2020:14:30:19 +0100] "GET /sint33/P2EA?p=M@T30KRACK&pphase=01 HTTP/1.1" 200 526
0:0:0:0:0:0:0:1 - - [14/Dec/2020:14:30:21 +0100] "GET /sint33/P2EA?p=M@T30KRACK&pphase=01 HTTP/1.1" 200 526
0:0:0:0:0:0:0:1 - - [14/Dec/2020:14:30:23 +0100] "GET /sint33/P2EA?p=M@T30KRACK&pphase=02 HTTP/1.1" 200 2072
0:0:0:0:0:0:0:1 - - [14/Dec/2020:14:33:28 +0100] "GET /sint33/P2EA?p=M@T30KRACK&pphase=02 HTTP/1.1" 200 2387
0:0:0:0:0:0:0:1 - - [14/Dec/2020:14:33:29 +0100] "GET /sint33/P2EA?p=M@T30KRACK&pphase=02 HTTP/1.1" 200 2387
0:0:0:0:0:0:0:1 - - [14/Dec/2020:14:37:20 +0100] "GET /sint33/P2EA?p=M@T30KRACK&pphase=02 HTTP/1.1" 200 2636
0:0:0:0:0:0:0:1 - - [14/Dec/2020:14:37:21 +0100] "GET /sint33/P2EA?p=M@T30KRACK&pphase=02 HTTP/1.1" 200 2636
0:0:0:0:0:0:0:1 - - [14/Dec/2020:14:39:27 +0100] "GET /sint33/P2EA?p=M@T30KRACK&pphase=02 HTTP/1.1" 200 2636
0:0:0:0:0:0:0:1 - - [14/Dec/2020:14:39:28 +0100] "GET /sint33/P2EA?p=M@T30KRACK&pphase=02 HTTP/1.1" 200 2384
0:0:0:0:0:0:0:1 - - [14/Dec/2020:14:39:29 +0100] "GET /sint33/P2EA?p=M@T30KRACK&pphase=02 HTTP/1.1" 200 2384
0:0:0:0:0:0:0:1 - - [14/Dec/2020:20:19:09 +0100] "GET /sint33/P2EA?p=M@T30KRACK HTTP/1.1" 500 3720
0:0:0:0:0:0:0:1 - - [14/Dec/2020:20:19:25 +0100] "GET /sint33/P2EA?p=M@T30KRACK HTTP/1.1" 500 3720
0:0:0:0:0:0:0:1 - - [14/Dec/2020:20:20:55 +0100] "GET /sint33/P2EA?p=M@T30KRACK HTTP/1.1" 500 3720
0:0:0:0:0:0:0:1 - - [14/Dec/2020:20:22:49 +0100] "GET /sint33/P2EA?p=M@T30KRACK HTTP/1.1" 500 3720
0:0:0:0:0:0:0:1 - - [14/Dec/2020:20:22:57 +0100] "GET /sint33/P2EA?p=M@T30KRACK HTTP/1.1" 200 526
0:0:0:0:0:0:0:1 - - [14/Dec/2020:20:22:58 +0100] "GET /sint33/favicon.ico HTTP/1.1" 404 773
0:0:0:0:0:0:0:1 - - [14/Dec/2020:20:24:01 +0100] "GET /sint33/P2EA?p=M@T30KRACK HTTP/1.1" 200 526
0:0:0:0:0:0:0:1 - - [14/Dec/2020:20:25:19 +0100] "GET /sint33/P2EA?p=M@T30KRACK&pphase=02 HTTP/1.1" 200 -
0:0:0:0:0:0:0:1 - - [14/Dec/2020:20:25:57 +0100] "GET /sint33/P2EA?p=M@T30KRACK HTTP/1.1" 200 526
0:0:0:0:0:0:0:1 - - [14/Dec/2020:20:26:03 +0100] "GET /sint33/P2EA?p=M@T30KRACK&pphase=11 HTTP/1.1" 200 819
0:0:0:0:0:0:0:1 - - [14/Dec/2020:20:26:27 +0100] "GET /sint33/P2EA?p=M@T30KRACK&pphase=11 HTTP/1.1" 200 819
0:0:0:0:0:0:0:1 - - [14/Dec/2020:20:26:30 +0100] "GET /sint33/P2EA?p=M@T30KRACK&pphase=01 HTTP/1.1" 200 526
0:0:0:0:0:0:0:1 - - [14/Dec/2020:20:28:25 +0100] "GET /sint33/P2EA?p=M@T30KRACK&pphase=01 HTTP/1.1" 200 526
0:0:0:0:0:0:0:1 - - [14/Dec/2020:20:28:26 +0100] "GET /sint33/P2EA?p=M@T30KRACK&pphase=01 HTTP/1.1" 200 526
0:0:0:0:0:0:0:1 - - [14/Dec/2020:20:28:27 +0100] "GET /sint33/P2EA?p=M@T30KRACK&pphase=01 HTTP/1.1" 200 526
0:0:0:0:0:0:0:1 - - [14/Dec/2020:20:28:27 +0100] "GET /sint33/P2EA?p=M@T30KRACK&pphase=01 HTTP/1.1" 200 526
0:0:0:0:0:0:0:1 - - [14/Dec/2020:20:28:27 +0100] "GET /sint33/P2EA?p=M@T30KRACK&pphase=01 HTTP/1.1" 200 526
0:0:0:0:0:0:0:1 - - [14/Dec/2020:20:28:39 +0100] "GET /sint33/P2EA?p=M@T30KRACK&pphase=01 HTTP/1.1" 200 526
0:0:0:0:0:0:0:1 - - [14/Dec/2020:20:30:11 +0100] "GET /sint33/P2EA?p=M@T30KRACK&pphase=01 HTTP/1.1" 200 526
0:0:0:0:0:0:0:1 - - [14/Dec/2020:20:30:11 +0100] "GET /sint33/favicon.ico HTTP/1.1" 404 773
0:0:0:0:0:0:0:1 - - [14/Dec/2020:20:31:55 +0100] "GET /sint33/P2EA?p=M@T30KRACK&pphase=01 HTTP/1.1" 200 526
0:0:0:0:0:0:0:1 - - [14/Dec/2020:20:31:55 +0100] "GET /sint33/favicon.ico HTTP/1.1" 404 773
0:0:0:0:0:0:0:1 - - [14/Dec/2020:20:32:23 +0100] "GET /sint33/P2EA?p=M@T30KRACK&pphase=01 HTTP/1.1" 200 526
0:0:0:0:0:0:0:1 - - [14/Dec/2020:20:32:24 +0100] "GET /sint33/favicon.ico HTTP/1.1" 404 773
0:0:0:0:0:0:0:1 - - [14/Dec/2020:20:35:02 +0100] "GET /sint33/P2EA?p=M@T30KRACK&pphase=01 HTTP/1.1" 200 526
0:0:0:0:0:0:0:1 - - [14/Dec/2020:20:35:02 +0100] "GET /sint33/favicon.ico HTTP/1.1" 404 773
0:0:0:0:0:0:0:1 - - [14/Dec/2020:20:37:45 +0100] "GET /sint33/P2EA?p=M@T30KRACK&pphase=01 HTTP/1.1" 200 526
0:0:0:0:0:0:0:1 - - [14/Dec/2020:20:37:45 +0100] "GET /sint33/favicon.ico HTTP/1.1" 404 773
0:0:0:0:0:0:0:1 - - [14/Dec/2020:20:45:55 +0100] "GET /sint33/P2EA?p=M@T30KRACK&pphase=01 HTTP/1.1" 200 526
0:0:0:0:0:0:0:1 - - [14/Dec/2020:20:45:56 +0100] "GET /sint33/favicon.ico HTTP/1.1" 404 773
0:0:0:0:0:0:0:1 - - [14/Dec/2020:20:47:51 +0100] "GET /sint33/P2EA?p=M@T30KRACK&pphase=01 HTTP/1.1" 200 526
0:0:0:0:0:0:0:1 - - [14/Dec/2020:20:47:51 +0100] "GET /sint33/favicon.ico HTTP/1.1" 404 773
0:0:0:0:0:0:0:1 - - [14/Dec/2020:20:50:17 +0100] "GET /sint33/P2EA?p=M@T30KRACK&pphase=01 HTTP/1.1" 200 526
0:0:0:0:0:0:0:1 - - [14/Dec/2020:20:50:17 +0100] "GET /sint33/favicon.ico HTTP/1.1" 404 773
0:0:0:0:0:0:0:1 - - [14/Dec/2020:20:54:05 +0100] "GET /sint33/P2EA?p=M@T30KRACK&pphase=01 HTTP/1.1" 200 526
0:0:0:0:0:0:0:1 - - [14/Dec/2020:20:54:05 +0100] "GET /sint33/favicon.ico HTTP/1.1" 404 773
0:0:0:0:0:0:0:1 - - [14/Dec/2020:21:18:08 +0100] "GET /sint33/P2EA?p=M@T30KRACK&pphase=01 HTTP/1.1" 200 526
0:0:0:0:0:0:0:1 - - [14/Dec/2020:21:18:08 +0100] "GET /sint33/favicon.ico HTTP/1.1" 404 773
0:0:0:0:0:0:0:1 - - [14/Dec/2020:21:18:17 +0100] "GET /sint33/P2EA?p=M@T30KRACK&pphase=02 HTTP/1.1" 200 523
0:0:0:0:0:0:0:1 - - [14/Dec/2020:21:21:50 +0100] "GET /sint33/P2EA?p=M@T30KRACK&pphase=01 HTTP/1.1" 200 526
0:0:0:0:0:0:0:1 - - [14/Dec/2020:21:22:39 +0100] "GET /sint33/P2EA?p=M@T30KRACK&pphase=01 HTTP/1.1" 200 526
0:0:0:0:0:0:0:1 - - [14/Dec/2020:21:22:39 +0100] "GET /sint33/favicon.ico HTTP/1.1" 404 773
0:0:0:0:0:0:0:1 - - [14/Dec/2020:21:22:42 +0100] "GET /sint33/P2EA?p=M@T30KRACK&pphase=01 HTTP/1.1" 200 526
0:0:0:0:0:0:0:1 - - [14/Dec/2020:21:22:42 +0100] "GET /sint33/favicon.ico HTTP/1.1" 404 773
0:0:0:0:0:0:0:1 - - [14/Dec/2020:21:22:48 +0100] "GET /sint33/P2EA?p=M@T30KRACK&pphase=01 HTTP/1.1" 200 526
0:0:0:0:0:0:0:1 - - [14/Dec/2020:21:23:05 +0100] "GET /sint33/P2EA?p=M@T30KRACK&pphase=02 HTTP/1.1" 200 523
0:0:0:0:0:0:0:1 - - [14/Dec/2020:21:26:09 +0100] "GET /sint33/P2EA?p=M@T30KRACK&pphase=01 HTTP/1.1" 200 526
0:0:0:0:0:0:0:1 - - [14/Dec/2020:21:26:11 +0100] "GET /sint33/P2EA?p=M@T30KRACK&pphase=01 HTTP/1.1" 200 526
0:0:0:0:0:0:0:1 - - [14/Dec/2020:21:26:11 +0100] "GET /sint33/favicon.ico HTTP/1.1" 404 773
0:0:0:0:0:0:0:1 - - [14/Dec/2020:21:26:14 +0100] "GET /sint33/P2EA?p=M@T30KRACK&pphase=01 HTTP/1.1" 200 526
0:0:0:0:0:0:0:1 - - [14/Dec/2020:21:26:14 +0100] "GET /sint33/favicon.ico HTTP/1.1" 404 773
0:0:0:0:0:0:0:1 - - [14/Dec/2020:21:26:15 +0100] "GET /sint33/P2EA?p=M@T30KRACK&pphase=02 HTTP/1.1" 200 3994
0:0:0:0:0:0:0:1 - - [14/Dec/2020:21:37:27 +0100] "GET /sint33/P2EA?p=M@T30KRACK&pphase=01 HTTP/1.1" 200 526
0:0:0:0:0:0:0:1 - - [14/Dec/2020:21:37:27 +0100] "GET /sint33/favicon.ico HTTP/1.1" 404 773
0:0:0:0:0:0:0:1 - - [14/Dec/2020:21:37:31 +0100] "GET /sint33/P2EA?p=M@T30KRACK&pphase=02 HTTP/1.1" 200 9290
0:0:0:0:0:0:0:1 - - [14/Dec/2020:21:43:27 +0100] "GET /sint33/P2EA?p=M@T30KRACK&pphase=01 HTTP/1.1" 200 526
0:0:0:0:0:0:0:1 - - [14/Dec/2020:21:44:12 +0100] "GET /sint33/P2EA?p=M@T30KRACK&pphase=02 HTTP/1.1" 200 9290
0:0:0:0:0:0:0:1 - - [14/Dec/2020:23:07:14 +0100] "GET /sint33/P2EA?p=M@T30KRACK&pphase=01 HTTP/1.1" 200 526
0:0:0:0:0:0:0:1 - - [14/Dec/2020:23:07:16 +0100] "GET /sint33/P2EA?p=M@T30KRACK&pphase=02 HTTP/1.1" 200 8113
0:0:0:0:0:0:0:1 - - [14/Dec/2020:23:08:15 +0100] "GET /sint33/P2EA?p=M@T30KRACK&pphase=01 HTTP/1.1" 200 526
0:0:0:0:0:0:0:1 - - [14/Dec/2020:23:08:18 +0100] "GET /sint33/P2EA?p=M@T30KRACK&pphase=01 HTTP/1.1" 200 526
0:0:0:0:0:0:0:1 - - [14/Dec/2020:23:08:18 +0100] "GET /sint33/favicon.ico HTTP/1.1" 404 773
0:0:0:0:0:0:0:1 - - [14/Dec/2020:23:08:22 +0100] "GET /sint33/P2EA?p=M@T30KRACK&pphase=02 HTTP/1.1" 200 6956
0:0:0:0:0:0:0:1 - - [14/Dec/2020:23:20:02 +0100] "GET /sint33/P2EA?p=M@T30KRACK&pphase=01 HTTP/1.1" 200 526
0:0:0:0:0:0:0:1 - - [14/Dec/2020:23:20:02 +0100] "GET /sint33/favicon.ico HTTP/1.1" 404 773
0:0:0:0:0:0:0:1 - - [14/Dec/2020:23:20:07 +0100] "GET /sint33/P2EA?p=M@T30KRACK&pphase=01&auto=true HTTP/1.1" 200 77
0:0:0:0:0:0:0:1 - - [14/Dec/2020:23:20:13 +0100] "GET /sint33/P2EA?p=M@T30KRACK&pphase=02&auto=true HTTP/1.1" 200 13762
0:0:0:0:0:0:0:1 - - [14/Dec/2020:23:21:25 +0100] "GET /sint33/P2EA?p=M@T30KRACK&pphase=02&auto=true HTTP/1.1" 200 13762
0:0:0:0:0:0:0:1 - - [14/Dec/2020:23:22:39 +0100] "GET /sint33/P2EA?p=M@T30KRACK&pphase=02&auto=true HTTP/1.1" 200 13774
0:0:0:0:0:0:0:1 - - [14/Dec/2020:23:23:04 +0100] "GET /sint33/P2EA?p=M@T30KRACK&pphase=02&auto=true HTTP/1.1" 200 13776
0:0:0:0:0:0:0:1 - - [14/Dec/2020:23:46:29 +0100] "GET /sint33/favicon.ico HTTP/1.1" 404 773
0:0:0:0:0:0:0:1 - - [14/Dec/2020:23:46:34 +0100] "GET /sint33/P2EA?p=M@T30KRACK&pphase=01 HTTP/1.1" 200 526
0:0:0:0:0:0:0:1 - - [14/Dec/2020:23:46:34 +0100] "GET /sint33/favicon.ico HTTP/1.1" 404 773
0:0:0:0:0:0:0:1 - - [14/Dec/2020:23:46:35 +0100] "GET /sint33/P2EA?p=M@T30KRACK&pphase=11 HTTP/1.1" 200 819
0:0:0:0:0:0:0:1 - - [14/Dec/2020:23:46:35 +0100] "GET /sint33/favicon.ico HTTP/1.1" 404 773
0:0:0:0:0:0:0:1 - - [14/Dec/2020:23:46:36 +0100] "GET /sint33/P2EA?p=M@T30KRACK&pphase=01 HTTP/1.1" 200 526
0:0:0:0:0:0:0:1 - - [14/Dec/2020:23:46:37 +0100] "GET /sint33/P2EA?p=M@T30KRACK&pphase=02 HTTP/1.1" 200 6956
0:0:0:0:0:0:0:1 - - [14/Dec/2020:23:49:12 +0100] "GET /sint33/P2EA?p=M@T30KRACK&pphase=01 HTTP/1.1" 500 3345
0:0:0:0:0:0:0:1 - - [14/Dec/2020:23:49:13 +0100] "GET /favicon.ico HTTP/1.1" 200 21630
0:0:0:0:0:0:0:1 - - [14/Dec/2020:23:49:37 +0100] "GET /sint33/P2EA?p=M@T30KRACK&pphase=01 HTTP/1.1" 500 3345
0:0:0:0:0:0:0:1 - - [14/Dec/2020:23:49:37 +0100] "GET /favicon.ico HTTP/1.1" 200 21630
0:0:0:0:0:0:0:1 - - [14/Dec/2020:23:50:10 +0100] "GET /sint33/P2EA?p=M@T30KRACK&pphase=01 HTTP/1.1" 500 3345
0:0:0:0:0:0:0:1 - - [14/Dec/2020:23:50:10 +0100] "GET /favicon.ico HTTP/1.1" 200 21630
0:0:0:0:0:0:0:1 - - [14/Dec/2020:23:50:12 +0100] "GET /sint33/P2EA?p=M@T30KRACK&pphase=01 HTTP/1.1" 500 3345
0:0:0:0:0:0:0:1 - - [14/Dec/2020:23:50:12 +0100] "GET /favicon.ico HTTP/1.1" 200 21630
0:0:0:0:0:0:0:1 - - [14/Dec/2020:23:50:36 +0100] "GET /sint33/P2EA?p=M@T30KRACK&pphase=01 HTTP/1.1" 200 526
0:0:0:0:0:0:0:1 - - [14/Dec/2020:23:51:46 +0100] "GET /sint33/P2EA?p=M@T30KRACK&pphase=01 HTTP/1.1" 200 526
0:0:0:0:0:0:0:1 - - [14/Dec/2020:23:51:46 +0100] "GET /sint33/favicon.ico HTTP/1.1" 404 773
0:0:0:0:0:0:0:1 - - [14/Dec/2020:23:51:48 +0100] "GET /sint33/P2EA?p=M@T30KRACK&pphase=01 HTTP/1.1" 200 526
0:0:0:0:0:0:0:1 - - [14/Dec/2020:23:51:48 +0100] "GET /sint33/favicon.ico HTTP/1.1" 404 773
0:0:0:0:0:0:0:1 - - [14/Dec/2020:23:52:01 +0100] "GET /sint33/P2EA?p=M@T30KRACK&pphase=02 HTTP/1.1" 200 6914
0:0:0:0:0:0:0:1 - - [14/Dec/2020:23:52:18 +0100] "GET /sint33/P2EA?p=M@T30KRACK&pphase=02 HTTP/1.1" 200 6914
0:0:0:0:0:0:0:1 - - [14/Dec/2020:23:52:18 +0100] "GET /sint33/favicon.ico HTTP/1.1" 404 773
0:0:0:0:0:0:0:1 - - [14/Dec/2020:23:52:23 +0100] "GET /sint33/P2EA?p=M@T30KRACK&pphase=02 HTTP/1.1" 200 240
0:0:0:0:0:0:0:1 - - [14/Dec/2020:23:52:24 +0100] "GET /sint33/favicon.ico HTTP/1.1" 404 773
0:0:0:0:0:0:0:1 - - [14/Dec/2020:23:52:31 +0100] "GET /sint33/P2EA?p=M@T30KRACK&pphase=02 HTTP/1.1" 200 240
0:0:0:0:0:0:0:1 - - [14/Dec/2020:23:52:33 +0100] "GET /sint33/P2EA?p=M@T30KRACK&pphase=11 HTTP/1.1" 200 819
0:0:0:0:0:0:0:1 - - [14/Dec/2020:23:54:43 +0100] "GET /sint33/P2EA?p=M@T30KRACK&pphase=01 HTTP/1.1" 200 526
0:0:0:0:0:0:0:1 - - [14/Dec/2020:23:54:43 +0100] "GET /sint33/favicon.ico HTTP/1.1" 404 773
0:0:0:0:0:0:0:1 - - [14/Dec/2020:23:54:53 +0100] "GET /sint33/P2EA?p=M@T30KRACK&pphase=02 HTTP/1.1" 200 6914
0:0:0:0:0:0:0:1 - - [14/Dec/2020:23:55:47 +0100] "GET /sint33/P2EA?p=M@T30KRACK&pphase=01 HTTP/1.1" 200 526
0:0:0:0:0:0:0:1 - - [14/Dec/2020:23:55:58 +0100] "GET /sint33/P2EA?p=M@T30KRACK&pphase=02 HTTP/1.1" 200 7090
0:0:0:0:0:0:0:1 - - [14/Dec/2020:23:57:21 +0100] "GET /sint33/favicon.ico HTTP/1.1" 404 773
