127.0.0.1 - - [12/Nov/2020:12:55:49 +0100] "GET / HTTP/1.1" 200 11216
127.0.0.1 - - [12/Nov/2020:12:55:49 +0100] "GET /tomcat.css HTTP/1.1" 200 5581
127.0.0.1 - - [12/Nov/2020:12:55:49 +0100] "GET /tomcat.png HTTP/1.1" 200 5103
127.0.0.1 - - [12/Nov/2020:12:55:49 +0100] "GET /favicon.ico HTTP/1.1" 200 21630
127.0.0.1 - - [12/Nov/2020:12:55:49 +0100] "GET /asf-logo-wide.svg HTTP/1.1" 200 27235
127.0.0.1 - - [12/Nov/2020:12:55:49 +0100] "GET /bg-nav.png HTTP/1.1" 200 1401
127.0.0.1 - - [12/Nov/2020:12:55:50 +0100] "GET /bg-upper.png HTTP/1.1" 200 3103
127.0.0.1 - - [12/Nov/2020:12:55:50 +0100] "GET /bg-middle.png HTTP/1.1" 200 1918
127.0.0.1 - - [12/Nov/2020:12:55:50 +0100] "GET /bg-button.png HTTP/1.1" 200 713
0:0:0:0:0:0:0:1 - - [12/Nov/2020:12:59:57 +0100] "GET /sint33/pag.html HTTP/1.1" 200 103
0:0:0:0:0:0:0:1 - - [12/Nov/2020:13:35:01 +0100] "GET / HTTP/1.1" 200 11216
0:0:0:0:0:0:0:1 - - [12/Nov/2020:13:35:32 +0100] "GET /sint33/public.html HTTP/1.1" 404 773
127.0.0.1 - - [12/Nov/2020:14:07:35 +0100] "GET / HTTP/1.1" 200 11216
127.0.0.1 - - [12/Nov/2020:14:07:45 +0100] "GET /sint33 HTTP/1.1" 302 -
127.0.0.1 - - [12/Nov/2020:14:07:45 +0100] "GET /sint33/ HTTP/1.1" 404 762
127.0.0.1 - - [12/Nov/2020:14:08:05 +0100] "GET /sint33/mateo HTTP/1.1" 404 767
127.0.0.1 - - [12/Nov/2020:14:08:19 +0100] "GET /sint33/prueba HTTP/1.1" 500 1440
127.0.0.1 - - [12/Nov/2020:14:09:33 +0100] "GET /sint33/prueba HTTP/1.1" 500 1440
0:0:0:0:0:0:0:1 - - [12/Nov/2020:14:09:51 +0100] "GET /sint33/pag.html HTTP/1.1" 200 103
0:0:0:0:0:0:0:1 - - [12/Nov/2020:14:09:51 +0100] "GET /favicon.ico HTTP/1.1" 200 21630
127.0.0.1 - - [12/Nov/2020:14:11:15 +0100] "GET /sint33/prueb HTTP/1.1" 404 767
127.0.0.1 - - [12/Nov/2020:14:11:15 +0100] "GET /favicon.ico HTTP/1.1" 200 8192
127.0.0.1 - - [12/Nov/2020:14:12:06 +0100] "GET /sint33/pruebA HTTP/1.1" 404 768
127.0.0.1 - - [12/Nov/2020:14:12:09 +0100] "GET /sint33/prueba HTTP/1.1" 500 1440
127.0.0.1 - - [12/Nov/2020:14:12:15 +0100] "GET /sint33/HP HTTP/1.1" 404 764
127.0.0.1 - - [12/Nov/2020:14:12:38 +0100] "GET /sint33/HP HTTP/1.1" 500 1440
127.0.0.1 - - [12/Nov/2020:14:15:33 +0100] "GET /sint33/HP HTTP/1.1" 500 3295
0:0:0:0:0:0:0:1 - - [12/Nov/2020:14:16:19 +0100] "GET /sint33/HP HTTP/1.1" 500 1440
0:0:0:0:0:0:0:1 - - [12/Nov/2020:14:21:41 +0100] "GET /sint33/HP HTTP/1.1" 500 1440
0:0:0:0:0:0:0:1 - - [12/Nov/2020:14:21:44 +0100] "GET /sint33/HP HTTP/1.1" 500 1440
0:0:0:0:0:0:0:1 - - [12/Nov/2020:14:22:01 +0100] "GET /sint33/HP HTTP/1.1" 500 1440
0:0:0:0:0:0:0:1 - - [12/Nov/2020:14:22:27 +0100] "GET /sint33/ HTTP/1.1" 404 762
0:0:0:0:0:0:0:1 - - [12/Nov/2020:14:22:43 +0100] "GET /sint33/HP HTTP/1.1" 500 1440
0:0:0:0:0:0:0:1 - - [12/Nov/2020:14:28:36 +0100] "GET /sint33/HP HTTP/1.1" 500 1440
0:0:0:0:0:0:0:1 - - [12/Nov/2020:16:23:54 +0100] "GET /sint33/HP HTTP/1.1" 200 121
0:0:0:0:0:0:0:1 - - [12/Nov/2020:16:24:08 +0100] "GET /sint33/HP1 HTTP/1.1" 404 765
0:0:0:0:0:0:0:1 - - [12/Nov/2020:16:24:10 +0100] "GET /sint33/HP HTTP/1.1" 200 121
0:0:0:0:0:0:0:1 - - [12/Nov/2020:21:20:56 +0100] "GET /sint33/HP HTTP/1.1" 200 158
0:0:0:0:0:0:0:1 - - [12/Nov/2020:21:20:56 +0100] "GET /favicon.ico HTTP/1.1" 200 21630
127.0.0.1 - - [12/Nov/2020:21:31:57 +0100] "GET /sint33/HP HTTP/1.1" 200 158
127.0.0.1 - - [12/Nov/2020:21:33:32 +0100] "GET /sint33/HP HTTP/1.1" 200 158
127.0.0.1 - - [12/Nov/2020:21:34:13 +0100] "GET /sint33/HP HTTP/1.1" 200 158
0:0:0:0:0:0:0:1 - - [12/Nov/2020:21:34:36 +0100] "GET /sint33/HP HTTP/1.1" 200 158
0:0:0:0:0:0:0:1 - - [12/Nov/2020:21:34:37 +0100] "GET /favicon.ico HTTP/1.1" 200 21630
127.0.0.1 - - [12/Nov/2020:21:35:01 +0100] "GET /sint33/HP HTTP/1.1" 200 158
127.0.0.1 - - [12/Nov/2020:21:36:54 +0100] "GET /sint33/HP HTTP/1.1" 404 764
127.0.0.1 - - [12/Nov/2020:21:36:58 +0100] "GET /sint33/mateo HTTP/1.1" 200 158
127.0.0.1 - - [12/Nov/2020:21:38:18 +0100] "GET /sint33/mateo HTTP/1.1" 200 158
127.0.0.1 - - [12/Nov/2020:21:41:38 +0100] "GET /sint33/mateo HTTP/1.1" 200 158
127.0.0.1 - - [12/Nov/2020:21:41:38 +0100] "GET /favicon.ico HTTP/1.1" 200 8192
127.0.0.1 - - [12/Nov/2020:21:46:05 +0100] "GET /sint33/mateo HTTP/1.1" 200 158
127.0.0.1 - - [12/Nov/2020:21:46:05 +0100] "GET /favicon.ico HTTP/1.1" 200 8192
127.0.0.1 - - [12/Nov/2020:21:46:15 +0100] "GET /sint33/mateo HTTP/1.1" 200 158
127.0.0.1 - - [12/Nov/2020:21:46:55 +0100] "GET /sint33/mateo HTTP/1.1" 200 158
127.0.0.1 - - [12/Nov/2020:21:50:01 +0100] "GET /sint33/mateo HTTP/1.1" 200 158
127.0.0.1 - - [12/Nov/2020:21:50:01 +0100] "GET /favicon.ico HTTP/1.1" 200 8192
127.0.0.1 - - [12/Nov/2020:21:51:57 +0100] "GET /sint33/mateo HTTP/1.1" 200 158
127.0.0.1 - - [12/Nov/2020:21:53:22 +0100] "GET /sint33/mateo HTTP/1.1" 200 158
127.0.0.1 - - [12/Nov/2020:21:58:50 +0100] "GET /sint33/mateo HTTP/1.1" 200 158
127.0.0.1 - - [12/Nov/2020:21:58:50 +0100] "GET /favicon.ico HTTP/1.1" 200 8192
127.0.0.1 - - [12/Nov/2020:21:58:59 +0100] "GET /sint33/mateo HTTP/1.1" 200 158
127.0.0.1 - - [12/Nov/2020:21:59:06 +0100] "GET /sint33/mateo HTTP/1.1" 200 158
127.0.0.1 - - [12/Nov/2020:21:59:07 +0100] "GET /sint33/mateo HTTP/1.1" 200 158
127.0.0.1 - - [12/Nov/2020:21:59:07 +0100] "GET /sint33/mateo HTTP/1.1" 200 158
0:0:0:0:0:0:0:1 - - [12/Nov/2020:21:59:37 +0100] "GET /sint33/mateo HTTP/1.1" 200 158
0:0:0:0:0:0:0:1 - - [12/Nov/2020:21:59:37 +0100] "GET /favicon.ico HTTP/1.1" 200 21630
127.0.0.1 - - [12/Nov/2020:21:59:45 +0100] "GET /sint33/mateo HTTP/1.1" 200 158
127.0.0.1 - - [12/Nov/2020:21:59:58 +0100] "GET /sint33/mateo HTTP/1.1" 200 158
127.0.0.1 - - [12/Nov/2020:22:00:00 +0100] "GET /sint33/mateo HTTP/1.1" 200 158
127.0.0.1 - - [12/Nov/2020:22:00:01 +0100] "GET /sint33/mateo HTTP/1.1" 200 158
127.0.0.1 - - [12/Nov/2020:22:00:02 +0100] "GET /sint33/mateo HTTP/1.1" 200 158
127.0.0.1 - - [12/Nov/2020:22:01:09 +0100] "GET /sint33/mateo HTTP/1.1" 200 158
